<?xml version="1.0" encoding="utf-8" standalone="no"?>
<!DOCTYPE svg PUBLIC "-//W3C//DTD SVG 1.1//EN"
  "http://www.w3.org/Graphics/SVG/1.1/DTD/svg11.dtd">
<!-- Created with matplotlib (http://matplotlib.org/) -->
<svg height="345.6pt" version="1.1" viewBox="0 0 460.8 345.6" width="460.8pt" xmlns="http://www.w3.org/2000/svg" xmlns:xlink="http://www.w3.org/1999/xlink">
 <defs>
  <style type="text/css">
*{stroke-linecap:butt;stroke-linejoin:round;}
  </style>
 </defs>
 <g id="figure_1">
  <g id="patch_1">
   <path d="M 0 345.6 
L 460.8 345.6 
L 460.8 0 
L 0 0 
z
" style="fill:#ffffff;"/>
  </g>
  <g id="axes_1">
   <g id="patch_2">
    <path d="M 57.6 307.584 
L 414.72 307.584 
L 414.72 41.472 
L 57.6 41.472 
z
" style="fill:#ffffff;"/>
   </g>
   <g id="matplotlib.axis_1"/>
   <g id="matplotlib.axis_2"/>
   <g id="line2d_1">
    <path clip-path="url(#p69c6a93c42)" d="M 73.832727 134.869996 
L 73.873314 190.092315 
L 73.913901 161.64625 
L 73.954488 148.648404 
L 73.995075 166.270341 
L 74.035662 179.100218 
L 74.076249 175.187526 
L 74.116836 162.609603 
L 74.157422 166.947158 
L 74.198009 196.188607 
L 74.238596 173.651102 
L 74.279183 163.400046 
L 74.31977 169.861917 
L 74.400944 196.648051 
L 74.441531 153.830746 
L 74.482118 186.13022 
L 74.522704 200.620027 
L 74.563291 184.697542 
L 74.603878 187.997642 
L 74.644465 175.07884 
L 74.685052 195.230194 
L 74.725639 212.585357 
L 74.766226 185.231091 
L 74.806813 184.875392 
L 74.8474 225.830217 
L 74.928573 200.946085 
L 75.009747 223.434186 
L 75.090921 218.696469 
L 75.131508 199.444243 
L 75.172095 239.420895 
L 75.253268 210.381997 
L 75.334442 245.112084 
L 75.375029 219.234958 
L 75.415616 220.771382 
L 75.537377 237.276818 
L 75.577964 211.656587 
L 75.618551 227.890308 
L 75.659137 237.296579 
L 75.699724 229.441553 
L 75.740311 209.354422 
L 75.780898 230.118369 
L 75.821485 222.58446 
L 75.902659 223.305739 
L 75.943246 206.256873 
L 75.983833 225.227504 
L 76.024419 223.285978 
L 76.065006 205.011926 
L 76.105593 207.284449 
L 76.14618 224.387658 
L 76.186767 201.173337 
L 76.227354 212.229658 
L 76.349115 196.840722 
L 76.389701 206.573051 
L 76.430288 182.899285 
L 76.470875 213.158428 
L 76.511462 199.0095 
L 76.552049 187.261542 
L 76.592636 189.860123 
L 76.633223 206.093845 
L 76.67381 195.966294 
L 76.714397 174.609514 
L 76.754983 184.025666 
L 76.79557 214.946805 
L 76.836157 174.797245 
L 76.876744 173.581939 
L 76.917331 191.110011 
L 76.998505 184.742005 
L 77.079679 172.475319 
L 77.120265 203.238369 
L 77.160852 176.452235 
L 77.201439 165.623166 
L 77.242026 175.172705 
L 77.282613 203.559487 
L 77.3232 164.709217 
L 77.444961 194.019829 
L 77.485548 175.27151 
L 77.566721 170.074348 
L 77.607308 191.075429 
L 77.647895 187.508555 
L 77.729069 168.122942 
L 77.769656 204.680928 
L 77.85083 180.750268 
L 77.891416 169.511158 
L 77.97259 195.88231 
L 78.013177 162.046412 
L 78.053764 177.499571 
L 78.094351 214.141542 
L 78.134938 162.268724 
L 78.175525 190.230643 
L 78.256698 182.276811 
L 78.297285 194.41999 
L 78.378459 193.412176 
L 78.419046 181.881589 
L 78.459633 184.198575 
L 78.50022 207.457359 
L 78.540807 186.555083 
L 78.581394 175.07884 
L 78.62198 210.940248 
L 78.703154 189.104262 
L 78.784328 194.741108 
L 78.824915 193.046596 
L 78.865502 183.250044 
L 78.906089 203.302593 
L 78.987262 195.284537 
L 79.027849 206.246993 
L 79.068436 186.935484 
L 79.109023 192.429062 
L 79.14961 217.881325 
L 79.190197 168.251389 
L 79.230784 223.478649 
L 79.271371 188.970874 
L 79.311958 191.722604 
L 79.474305 207.032495 
L 79.514892 174.140189 
L 79.555479 228.789437 
L 79.596066 180.073451 
L 79.67724 206.553289 
L 79.717827 198.303041 
L 79.758413 190.141718 
L 79.799 193.664129 
L 79.839587 197.265585 
L 79.880174 196.736976 
L 79.920761 189.035098 
L 79.961348 194.395289 
L 80.042522 202.447926 
L 80.083109 188.916532 
L 80.123695 194.019829 
L 80.164282 206.815124 
L 80.204869 197.082795 
L 80.286043 189.346335 
L 80.32663 202.111988 
L 80.407804 197.132198 
L 80.448391 181.772904 
L 80.488977 207.205405 
L 80.773086 180.206838 
L 80.894846 188.778204 
L 80.935433 177.010485 
L 80.97602 194.113694 
L 81.016607 195.15115 
L 81.097781 183.472356 
L 81.138368 213.3758 
L 81.178955 184.247978 
L 81.260128 198.149893 
L 81.300715 192.300615 
L 81.341302 182.830121 
L 81.381889 206.889228 
L 81.422476 181.995216 
L 81.463063 200.358193 
L 81.50365 193.960545 
L 81.544237 206.978153 
L 81.62541 203.020998 
L 81.665997 203.791679 
L 81.747171 215.356848 
L 81.787758 197.789253 
L 81.828345 225.667188 
L 81.868932 222.638803 
L 81.909519 206.968272 
L 81.990692 212.936116 
L 82.031279 227.134447 
L 82.071866 214.398436 
L 82.112453 203.381637 
L 82.15304 218.098697 
L 82.193627 224.708776 
L 82.234214 202.976535 
L 82.315388 208.687485 
L 82.355974 213.449904 
L 82.437148 192.503166 
L 82.477735 209.833628 
L 82.518322 192.676076 
L 82.558909 181.812426 
L 82.599496 206.983093 
L 82.68067 188.88195 
L 82.721257 189.099321 
L 82.761843 188.091507 
L 82.80243 176.862277 
L 82.843017 199.236752 
L 82.883604 174.490948 
L 82.964778 185.818983 
L 83.005365 183.823115 
L 83.045952 157.827423 
L 83.086539 200.155642 
L 83.127125 172.32217 
L 83.167712 169.644545 
L 83.208299 187.034289 
L 83.248886 183.17594 
L 83.289473 166.522295 
L 83.33006 192.853925 
L 83.411234 173.008867 
L 83.451821 175.523464 
L 83.532994 189.054859 
L 83.573581 162.906019 
L 83.614168 188.037164 
L 83.695342 182.182946 
L 83.735929 182.676973 
L 83.776516 184.559215 
L 83.817103 178.097344 
L 83.857689 193.061417 
L 83.898276 188.195252 
L 83.938863 176.383071 
L 83.97945 190.512238 
L 84.020037 194.513856 
L 84.060624 183.492117 
L 84.101211 187.617241 
L 84.182385 179.179263 
L 84.222972 200.219865 
L 84.344732 191.001325 
L 84.425906 187.335646 
L 84.466493 205.599818 
L 84.547667 188.496609 
L 84.588254 199.414602 
L 84.62884 212.526074 
L 84.669427 180.79473 
L 84.710014 200.343372 
L 84.750601 214.497241 
L 84.791188 187.770389 
L 84.831775 196.425739 
L 84.872362 210.969889 
L 84.912949 196.203427 
L 84.953536 192.478465 
L 84.994122 217.772639 
L 85.034709 184.860571 
L 85.075296 205.629459 
L 85.115883 213.00034 
L 85.15647 185.423762 
L 85.237644 202.31948 
L 85.278231 196.929647 
L 85.359404 193.333131 
L 85.399991 211.108217 
L 85.481165 189.963868 
L 85.521752 218.582843 
L 85.602926 206.93369 
L 85.643513 189.232709 
L 85.6841 209.191393 
L 85.765273 192.597031 
L 85.80586 195.185732 
L 85.846447 209.680479 
L 85.887034 185.626313 
L 85.927621 206.103725 
L 86.049382 191.64356 
L 86.089969 206.904049 
L 86.130555 200.822578 
L 86.171142 177.499571 
L 86.211729 207.235046 
L 86.252316 206.143247 
L 86.292903 179.50532 
L 86.374077 196.460321 
L 86.414664 200.392775 
L 86.455251 195.743982 
L 86.495837 179.297829 
L 86.536424 212.694043 
L 86.577011 194.217439 
L 86.617598 180.858954 
L 86.658185 214.596046 
L 86.739359 195.329 
L 86.779946 195.294418 
L 86.861119 199.799943 
L 86.901706 190.586342 
L 86.942293 191.678142 
L 86.98288 206.222291 
L 87.023467 188.867129 
L 87.226401 201.237561 
L 87.348162 191.050727 
L 87.388749 205.841891 
L 87.429336 187.449272 
L 87.469923 199.266394 
L 87.51051 197.443435 
L 87.551097 183.773712 
L 87.591684 190.072554 
L 87.63227 209.334661 
L 87.672857 165.336631 
L 87.754031 193.451698 
L 87.794618 170.800568 
L 87.835205 189.208007 
L 87.875792 195.669878 
L 87.916379 169.432113 
L 87.956966 196.722155 
L 87.997552 178.882847 
L 88.038139 178.448103 
L 88.078726 188.590474 
L 88.1599 181.985335 
L 88.241074 186.742813 
L 88.281661 188.906651 
L 88.322248 185.542328 
L 88.362834 187.508555 
L 88.403421 176.427533 
L 88.444008 198.401847 
L 88.484595 193.397355 
L 88.525182 161.478281 
L 88.565769 204.745151 
L 88.68753 173.586879 
L 88.768703 198.184475 
L 88.80929 181.293697 
L 88.849877 175.212227 
L 88.931051 166.961979 
L 88.971638 207.694491 
L 89.052812 173.730147 
L 89.093398 198.016506 
L 89.174572 179.50532 
L 89.215159 187.913657 
L 89.255746 188.254536 
L 89.296333 192.112885 
L 89.33692 186.209264 
L 89.377507 183.832995 
L 89.499267 197.151959 
L 89.539854 187.567838 
L 89.621028 193.021895 
L 89.661615 207.906923 
L 89.702202 186.238906 
L 89.783376 202.981475 
L 89.864549 202.665298 
L 89.98631 196.544306 
L 90.148658 213.573411 
L 90.189245 216.448647 
L 90.229831 200.214925 
L 90.270418 211.967824 
L 90.311005 217.402119 
L 90.351592 215.840994 
L 90.473353 204.774793 
L 90.51394 214.393495 
L 90.554527 212.82743 
L 90.595113 203.495263 
L 90.6357 213.262174 
L 90.676287 207.49194 
L 90.798048 199.049022 
L 90.838635 209.32972 
L 90.879222 185.522567 
L 90.919809 214.645449 
L 90.960396 195.111628 
L 91.000982 189.405618 
L 91.041569 205.792488 
L 91.122743 194.874495 
L 91.16333 185.522567 
L 91.203917 202.70482 
L 91.244504 200.649669 
L 91.285091 174.71326 
L 91.325678 193.693771 
L 91.366264 199.20711 
L 91.528612 170.11387 
L 91.609786 211.913481 
L 91.69096 168.434179 
L 91.731546 208.712187 
L 91.772133 189.934227 
L 91.81272 175.217167 
L 91.853307 188.733742 
L 91.934481 194.998002 
L 91.975068 193.881501 
L 92.015655 162.456454 
L 92.056242 205.906114 
L 92.137415 177.781167 
L 92.178002 180.038869 
L 92.259176 200.832459 
L 92.299763 185.02854 
L 92.34035 177.756465 
L 92.380937 205.328103 
L 92.421524 194.612661 
L 92.46211 177.548974 
L 92.502697 181.856888 
L 92.543284 202.057645 
L 92.583871 194.943659 
L 92.665045 183.798414 
L 92.705632 200.091418 
L 92.746219 185.75476 
L 92.786806 178.660534 
L 92.827393 210.43634 
L 92.867979 175.740836 
L 92.908566 200.600266 
L 92.949153 182.840001 
L 93.030327 186.891022 
L 93.070914 181.950753 
L 93.152088 194.607721 
L 93.233261 198.016506 
L 93.273848 172.761854 
L 93.314435 207.551224 
L 93.355022 194.261902 
L 93.395609 173.226239 
L 93.436196 201.914378 
L 93.476783 205.935756 
L 93.557957 181.980395 
L 93.598543 205.510893 
L 93.63913 197.082795 
L 93.679717 182.80542 
L 93.720304 187.78521 
L 93.760891 210.836502 
L 93.801478 198.584637 
L 93.842065 175.133183 
L 93.882652 203.24331 
L 93.923239 200.293969 
L 93.963825 187.834613 
L 94.044999 195.857609 
L 94.085586 188.471907 
L 94.126173 200.926324 
L 94.207347 191.737425 
L 94.247934 194.662064 
L 94.288521 198.253639 
L 94.329108 197.601523 
L 94.410281 190.052793 
L 94.450868 205.45655 
L 94.491455 186.224085 
L 94.532042 198.910694 
L 94.572629 197.710209 
L 94.613216 192.834164 
L 94.69439 192.794642 
L 94.775563 205.515833 
L 94.81615 183.842876 
L 94.856737 196.144144 
L 94.897324 201.03501 
L 94.937911 195.047405 
L 94.978498 189.193187 
L 95.019085 203.98929 
L 95.059672 194.014888 
L 95.100258 187.296124 
L 95.140845 196.183666 
L 95.181432 212.432209 
L 95.222019 179.411455 
L 95.303193 196.820961 
L 95.34378 204.972404 
L 95.46554 180.157436 
L 95.506127 225.286787 
L 95.546714 176.052073 
L 95.668475 203.188967 
L 95.709062 182.425019 
L 95.749649 182.667092 
L 95.790236 211.221843 
L 95.830822 192.898388 
L 95.871409 180.24142 
L 95.911996 196.692514 
L 95.952583 199.212051 
L 95.99317 187.473973 
L 96.074344 189.148724 
L 96.114931 215.361788 
L 96.155518 167.851227 
L 96.236691 176.422593 
L 96.277278 218.271606 
L 96.317865 185.290375 
L 96.358452 179.085398 
L 96.399039 209.334661 
L 96.439626 200.333492 
L 96.480213 176.975903 
L 96.5208 207.66485 
L 96.561387 189.06474 
L 96.64256 202.759163 
L 96.683147 193.604846 
L 96.723734 186.811977 
L 96.764321 206.414962 
L 96.804908 204.409213 
L 96.845495 170.691882 
L 96.886082 215.006089 
L 97.048429 189.049919 
L 97.089016 215.934859 
L 97.129603 194.163096 
L 97.17019 169.076414 
L 97.210777 215.435892 
L 97.251364 209.097528 
L 97.291951 168.621909 
L 97.332537 199.330617 
L 97.373124 203.880604 
L 97.413711 196.529485 
L 97.454298 185.408941 
L 97.494885 196.959288 
L 97.535472 195.111628 
L 97.576059 201.662424 
L 97.616646 177.558855 
L 97.657233 198.673561 
L 97.69782 200.358193 
L 97.778993 186.648948 
L 97.81958 203.949768 
L 97.860167 183.442714 
L 97.900754 198.663681 
L 97.941341 181.175131 
L 98.022515 191.959737 
L 98.063102 191.238458 
L 98.144275 187.879075 
L 98.184862 201.662424 
L 98.225449 175.162824 
L 98.306623 190.210882 
L 98.34721 187.22696 
L 98.387797 188.807846 
L 98.428384 197.403913 
L 98.46897 175.854462 
L 98.509557 203.60889 
L 98.550144 181.822306 
L 98.671905 196.420799 
L 98.712492 176.975903 
L 98.753079 193.382534 
L 98.793666 200.209985 
L 98.834252 182.513944 
L 98.874839 185.147107 
L 98.915426 198.900814 
L 98.9966 194.978241 
L 99.077774 185.700417 
L 99.118361 214.897403 
L 99.158948 173.838833 
L 99.240121 202.418285 
L 99.280708 200.461939 
L 99.321295 183.289566 
L 99.361882 188.605295 
L 99.443056 208.815932 
L 99.483643 173.759788 
L 99.52423 205.110731 
L 99.564817 205.767787 
L 99.64599 184.159053 
L 99.727164 210.831562 
L 99.767751 187.385048 
L 99.808338 188.378042 
L 99.848925 214.1119 
L 99.889512 201.726647 
L 99.930099 183.289566 
L 99.970685 210.42152 
L 100.092446 192.690897 
L 100.133033 205.728265 
L 100.214207 200.323611 
L 100.254794 190.003391 
L 100.295381 198.974918 
L 100.335967 202.778924 
L 100.376554 200.570625 
L 100.417141 178.270253 
L 100.457728 205.678862 
L 100.498315 208.722067 
L 100.579489 181.140549 
L 100.620076 220.257594 
L 100.660663 185.043361 
L 100.701249 181.52095 
L 100.741836 199.587511 
L 100.82301 196.751797 
L 100.863597 188.363221 
L 100.904184 189.845302 
L 100.944771 199.958031 
L 100.985358 185.087824 
L 101.066531 196.099682 
L 101.107118 190.284986 
L 101.147705 181.965574 
L 101.188292 195.981115 
L 101.35064 185.517627 
L 101.4724 203.213668 
L 101.512987 176.121237 
L 101.594161 192.458704 
L 101.634748 190.714789 
L 101.675335 179.599185 
L 101.715922 201.173337 
L 101.797096 195.363582 
L 101.878269 186.367353 
L 101.918856 203.050639 
L 101.959443 185.512687 
L 102.121791 198.82177 
L 102.202964 185.685596 
L 102.243551 205.510893 
L 102.284138 183.600803 
L 102.324725 201.632782 
L 102.365312 188.249595 
L 102.446486 197.552121 
L 102.487073 187.809911 
L 102.52766 194.612661 
L 102.568246 203.8065 
L 102.608833 188.793025 
L 102.690007 195.353701 
L 102.730594 205.545475 
L 102.771181 180.280942 
L 102.811768 195.482148 
L 102.852355 205.580057 
L 102.892942 186.624247 
L 102.974115 189.929287 
L 103.014702 199.049022 
L 103.095876 192.57727 
L 103.136463 194.790511 
L 103.17705 190.54682 
L 103.217637 203.001237 
L 103.258224 197.35945 
L 103.298811 184.060248 
L 103.339397 200.219865 
L 103.379984 198.387026 
L 103.420571 206.484126 
L 103.461158 183.250044 
L 103.501745 191.075429 
L 103.542332 211.177381 
L 103.582919 194.336006 
L 103.623506 192.320376 
L 103.745266 205.565236 
L 103.785853 185.20145 
L 103.82644 197.048213 
L 103.867027 208.820873 
L 103.907614 184.406067 
L 103.948201 200.787996 
L 103.988788 203.732396 
L 104.029375 188.951113 
L 104.110548 193.422056 
L 104.151135 192.21169 
L 104.191722 202.601075 
L 104.232309 191.149533 
L 104.272896 189.61805 
L 104.313483 202.714701 
L 104.35407 189.385857 
L 104.394657 195.51673 
L 104.435243 194.790511 
L 104.557004 184.727184 
L 104.597591 204.666107 
L 104.638178 184.010845 
L 104.719352 193.431937 
L 104.759939 192.75512 
L 104.800526 188.684339 
L 104.881699 189.173425 
L 104.922286 196.040398 
L 104.962873 179.767155 
L 105.00346 200.536043 
L 105.044047 180.024049 
L 105.125221 198.337623 
L 105.165808 173.542416 
L 105.206394 200.012374 
L 105.287568 183.36367 
L 105.368742 190.299807 
L 105.409329 187.725927 
L 105.449916 192.01902 
L 105.490503 188.412624 
L 105.65285 196.198487 
L 105.693437 178.645714 
L 105.734024 198.762486 
L 105.774611 191.406427 
L 105.815198 195.057285 
L 105.855785 188.175491 
L 105.896372 197.848537 
L 105.977545 181.599994 
L 106.018132 200.368074 
L 106.058719 197.522479 
L 106.099306 185.463284 
L 106.139893 192.646434 
L 106.18048 206.00492 
L 106.221067 186.347592 
L 106.261654 187.518436 
L 106.302241 207.259748 
L 106.342827 188.763383 
L 106.383414 188.476848 
L 106.464588 199.56281 
L 106.505175 195.348761 
L 106.545762 194.627482 
L 106.586349 195.753863 
L 106.626936 187.953179 
L 106.667523 206.661975 
L 106.708109 195.403104 
L 106.748696 180.271062 
L 106.789283 208.761589 
L 106.870457 195.818086 
L 106.911044 194.237201 
L 106.951631 187.849434 
L 106.992218 204.690808 
L 107.073391 196.242949 
L 107.113978 188.89183 
L 107.154565 199.488706 
L 107.195152 207.022615 
L 107.235739 187.23684 
L 107.276326 188.081626 
L 107.316913 207.175763 
L 107.398087 199.903688 
L 107.438673 188.274297 
L 107.47926 201.03995 
L 107.519847 201.005368 
L 107.560434 197.211242 
L 107.601021 182.82024 
L 107.641608 204.097976 
L 107.682195 207.220226 
L 107.763369 187.429511 
L 107.803955 207.650029 
L 107.844542 198.115311 
L 107.885129 187.908717 
L 107.925716 191.218697 
L 107.966303 210.752518 
L 108.00689 196.687574 
L 108.047477 187.943299 
L 108.088064 199.172529 
L 108.128651 200.654609 
L 108.169238 199.058902 
L 108.209824 186.362413 
L 108.250411 195.329 
L 108.290998 203.727456 
L 108.331585 191.529933 
L 108.372172 190.413433 
L 108.453346 203.776859 
L 108.493933 189.138844 
L 108.575106 197.601523 
L 108.65628 187.320825 
L 108.696867 192.285795 
L 108.778041 195.946533 
L 108.859215 197.809015 
L 108.899802 178.961891 
L 108.940388 201.884736 
L 108.980975 199.948151 
L 109.021562 167.772183 
L 109.062149 202.87279 
L 109.102736 203.356936 
L 109.143323 169.92614 
L 109.18391 194.667004 
L 109.224497 199.034201 
L 109.265084 181.214653 
L 109.346257 194.316245 
L 109.427431 182.657212 
L 109.468018 195.69952 
L 109.549192 187.385048 
L 109.589779 178.299895 
L 109.630366 202.749283 
L 109.670953 198.189415 
L 109.711539 178.319656 
L 109.752126 186.184563 
L 109.8333 199.93827 
L 109.873887 174.851588 
L 109.914474 190.798774 
L 109.955061 205.486192 
L 109.995648 187.078752 
L 110.036235 185.275554 
L 110.117408 198.426548 
L 110.157995 193.105879 
L 110.198582 184.415947 
L 110.239169 193.604846 
L 110.279756 216.384423 
L 110.320343 172.31229 
L 110.36093 192.503166 
L 110.401517 205.036627 
L 110.442103 186.258667 
L 110.48269 201.746408 
L 110.523277 187.78027 
L 110.563864 196.045339 
L 110.604451 209.818807 
L 110.645038 174.451426 
L 110.685625 204.774793 
L 110.726212 207.768595 
L 110.766799 179.767155 
L 110.847972 196.094741 
L 110.888559 202.349121 
L 110.969733 188.462027 
L 111.01032 206.246993 
L 111.091494 200.11612 
L 111.132081 186.194444 
L 111.172667 201.924258 
L 111.213254 203.016057 
L 111.294428 189.845302 
L 111.335015 203.841082 
L 111.375602 193.224446 
L 111.416189 189.341395 
L 111.497363 206.56811 
L 111.53795 192.532808 
L 111.619123 190.151599 
L 111.65971 210.337535 
L 111.700297 189.860123 
L 111.740884 188.165611 
L 111.822058 209.211154 
L 111.862645 178.912488 
L 111.903232 195.403104 
L 111.943818 203.663232 
L 111.984405 196.682633 
L 112.024992 184.682722 
L 112.065579 203.682994 
L 112.106166 188.121148 
L 112.146753 191.692962 
L 112.18734 207.447478 
L 112.227927 183.18088 
L 112.349687 199.38002 
L 112.390274 194.143335 
L 112.430861 173.473253 
L 112.471448 208.307085 
L 112.552622 180.369867 
L 112.633796 196.302233 
L 112.674382 199.528228 
L 112.755556 177.227857 
L 112.796143 212.180255 
L 112.83673 194.084052 
L 112.877317 178.117105 
L 112.917904 192.048662 
L 112.958491 207.319031 
L 112.999078 194.326125 
L 113.039665 185.320016 
L 113.080251 188.200193 
L 113.161425 202.018123 
L 113.242599 176.580681 
L 113.283186 214.437958 
L 113.323773 201.049831 
L 113.36436 167.614094 
L 113.404947 200.056837 
L 113.445533 199.157708 
L 113.567294 172.905122 
L 113.607881 204.90818 
L 113.689055 181.639516 
L 113.810815 200.076598 
L 113.851402 194.558318 
L 113.891989 178.843324 
L 113.932576 199.987673 
L 114.094924 186.332771 
L 114.135511 206.18771 
L 114.176097 197.063034 
L 114.216684 170.464629 
L 114.257271 208.939439 
L 114.338445 183.506938 
L 114.419619 184.47523 
L 114.460206 207.650029 
L 114.541379 195.976175 
L 114.581966 190.413433 
L 114.622553 206.484126 
L 114.66314 183.279685 
L 114.703727 195.976175 
L 114.744314 191.450889 
L 114.784901 202.561553 
L 114.825488 192.369779 
L 114.866075 181.89147 
L 114.947248 206.637274 
L 114.987835 177.998539 
L 115.028422 190.902519 
L 115.069009 202.823387 
L 115.109596 196.588768 
L 115.150183 186.362413 
L 115.19077 194.390349 
L 115.231357 209.492749 
L 115.271944 179.836318 
L 115.31253 189.163545 
L 115.353117 209.556973 
L 115.393704 186.599546 
L 115.434291 197.611404 
L 115.474878 188.778204 
L 115.556052 192.350018 
L 115.596639 197.048213 
L 115.637226 186.629187 
L 115.677812 212.343284 
L 115.718399 178.334477 
L 115.758986 200.644729 
L 115.799573 200.264328 
L 115.921334 187.192378 
L 115.961921 203.519965 
L 116.002508 196.875304 
L 116.043094 181.965574 
L 116.083681 193.392415 
L 116.124268 207.921744 
L 116.164855 184.643199 
L 116.286616 205.066269 
L 116.327203 181.130669 
L 116.408377 195.753863 
L 116.448963 187.760509 
L 116.48955 199.073723 
L 116.530137 190.284986 
L 116.611311 184.149173 
L 116.692485 205.64428 
L 116.733072 171.516906 
L 116.773659 208.692426 
L 116.854832 181.990275 
L 116.936006 190.942042 
L 116.976593 195.753863 
L 117.01718 186.762575 
L 117.057767 193.762935 
L 117.098354 206.044442 
L 117.138941 188.368162 
L 117.179527 187.671584 
L 117.260701 198.110371 
L 117.382462 186.881141 
L 117.463636 206.059263 
L 117.504223 181.461667 
L 117.585396 198.663681 
L 117.625983 206.059263 
L 117.66657 178.690176 
L 117.707157 195.926772 
L 117.747744 204.181961 
L 117.828918 187.360347 
L 117.869505 195.689639 
L 117.910091 197.17666 
L 117.950678 194.830033 
L 117.991265 187.543137 
L 118.031852 188.042104 
L 118.072439 207.170823 
L 118.113026 185.962251 
L 118.153613 199.617153 
L 118.234787 203.090161 
L 118.275374 186.421696 
L 118.356547 199.864166 
L 118.437721 184.065188 
L 118.478308 212.698983 
L 118.518895 182.365736 
L 118.559482 199.75548 
L 118.600069 180.290823 
L 118.640656 204.028812 
L 118.681242 200.733653 
L 118.721829 175.508643 
L 118.762416 211.992525 
L 118.803003 186.975006 
L 118.965351 200.002494 
L 119.046524 202.793745 
L 119.127698 185.073003 
L 119.168285 205.486192 
L 119.249459 194.256962 
L 119.290046 195.230194 
L 119.330633 192.537748 
L 119.37122 202.680119 
L 119.411806 189.469842 
L 119.452393 188.274297 
L 119.533567 187.612301 
L 119.574154 206.489066 
L 119.614741 181.777844 
L 119.655328 192.76006 
L 119.736502 186.807037 
L 119.777088 207.837759 
L 119.817675 172.060336 
L 119.858262 203.692874 
L 119.898849 202.739402 
L 119.939436 174.940512 
L 119.980023 213.044802 
L 120.02061 183.590922 
L 120.061197 204.102916 
L 120.101784 185.39906 
L 120.142371 180.508195 
L 120.182957 219.071929 
L 120.223544 175.681553 
L 120.304718 214.724493 
L 120.345305 177.642839 
L 120.426479 193.323251 
L 120.467066 188.862189 
L 120.507653 208.22804 
L 120.548239 177.371124 
L 120.588826 206.820064 
L 120.67 182.098961 
L 120.710587 206.716318 
L 120.791761 190.576462 
L 120.832348 205.812249 
L 120.872935 184.050367 
L 120.913521 196.564067 
L 120.994695 193.002133 
L 121.035282 196.208368 
L 121.075869 182.44972 
L 121.116456 212.995399 
L 121.157043 182.217528 
L 121.238217 205.071209 
L 121.31939 192.903328 
L 121.359977 189.899645 
L 121.400564 204.216543 
L 121.441151 195.072106 
L 121.481738 178.003479 
L 121.522325 199.824644 
L 121.562912 204.641406 
L 121.644086 181.096087 
L 121.684672 190.008331 
L 121.725259 215.02585 
L 121.765846 186.238906 
L 121.806433 183.047493 
L 121.84702 203.776859 
L 121.887607 199.676436 
L 121.928194 184.900093 
L 122.009368 187.869195 
L 122.049954 205.397267 
L 122.090541 184.569095 
L 122.131128 193.367713 
L 122.171715 201.380829 
L 122.212302 189.820601 
L 122.37465 198.762486 
L 122.415236 185.542328 
L 122.455823 193.921023 
L 122.49641 196.554186 
L 122.577584 185.730058 
L 122.618171 210.026298 
L 122.658758 198.070849 
L 122.739932 205.520773 
L 122.780518 174.787364 
L 122.821105 210.999531 
L 122.902279 186.332771 
L 122.983453 198.668621 
L 123.02404 192.992253 
L 123.064627 178.843324 
L 123.105214 219.684523 
L 123.1458 176.452235 
L 123.186387 199.053962 
L 123.267561 189.010397 
L 123.308148 204.137498 
L 123.348735 186.075877 
L 123.389322 193.387474 
L 123.470496 197.962163 
L 123.511083 189.692154 
L 123.551669 192.888507 
L 123.592256 195.951474 
L 123.67343 199.370139 
L 123.714017 177.400766 
L 123.754604 211.602244 
L 123.795191 192.073363 
L 123.835778 180.903416 
L 123.916951 206.414962 
L 123.957538 181.402383 
L 123.998125 188.432385 
L 124.038712 203.836142 
L 124.079299 194.686765 
L 124.119886 180.661343 
L 124.160473 199.098425 
L 124.20106 199.948151 
L 124.241647 184.2875 
L 124.282233 200.056837 
L 124.32282 191.243398 
L 124.363407 185.39906 
L 124.403994 212.743446 
L 124.444581 176.951202 
L 124.485168 193.67895 
L 124.525755 203.875664 
L 124.566342 191.381725 
L 124.606929 192.641494 
L 124.647515 189.889764 
L 124.688102 204.927941 
L 124.728689 187.138035 
L 124.769276 195.437686 
L 124.809863 196.979049 
L 124.931624 189.642751 
L 124.972211 201.094293 
L 125.012798 192.848985 
L 125.053384 189.761317 
L 125.134558 198.683442 
L 125.175145 188.541071 
L 125.215732 189.459961 
L 125.296906 185.917789 
L 125.337493 205.071209 
L 125.37808 187.627121 
L 125.459253 195.966294 
L 125.49984 188.175491 
L 125.540427 202.018123 
L 125.621601 192.967552 
L 125.662188 200.639788 
L 125.702775 189.953988 
L 125.743362 196.677693 
L 125.783948 185.483045 
L 125.824535 202.966655 
L 125.865122 193.708592 
L 125.946296 193.061417 
L 125.986883 188.294058 
L 126.02747 206.335918 
L 126.068057 188.274297 
L 126.108644 188.738682 
L 126.14923 201.109114 
L 126.189817 191.767066 
L 126.230404 182.662152 
L 126.270991 204.226423 
L 126.352165 199.582571 
L 126.392752 183.971323 
L 126.433339 194.252021 
L 126.473926 207.076958 
L 126.514512 187.632062 
L 126.555099 180.893536 
L 126.595686 205.412087 
L 126.636273 204.453675 
L 126.717447 182.0792 
L 126.798621 207.719193 
L 126.839208 175.923626 
L 126.879795 192.3846 
L 126.920381 202.492389 
L 126.960968 197.996745 
L 127.001555 177.568735 
L 127.042142 203.98435 
L 127.20449 188.600354 
L 127.245077 213.459785 
L 127.285663 174.821946 
L 127.32625 195.180792 
L 127.366837 200.842339 
L 127.407424 185.171808 
L 127.448011 201.351187 
L 127.488598 189.608169 
L 127.569772 202.373822 
L 127.610359 191.426188 
L 127.650945 196.045339 
L 127.691532 185.39906 
L 127.732119 202.862909 
L 127.772706 186.036355 
L 127.85388 206.968272 
L 127.894467 185.20145 
L 127.975641 193.896322 
L 128.016227 184.460409 
L 128.056814 198.268459 
L 128.097401 196.717215 
L 128.137988 183.521759 
L 128.178575 196.756737 
L 128.219162 192.745239 
L 128.259749 201.148636 
L 128.300336 193.199744 
L 128.340923 190.403552 
L 128.38151 204.987224 
L 128.422096 183.882398 
L 128.462683 201.010308 
L 128.50327 190.289926 
L 128.543857 191.085309 
L 128.584444 204.858777 
L 128.625031 181.733381 
L 128.665618 198.742725 
L 128.746792 201.212859 
L 128.787378 183.259924 
L 128.868552 203.860843 
L 128.909139 193.965486 
L 128.949726 188.857248 
L 128.990313 194.96342 
L 129.0309 205.738145 
L 129.071487 184.732124 
L 129.15266 199.478825 
L 129.274421 179.525081 
L 129.315008 201.178278 
L 129.396182 198.011566 
L 129.436769 184.633319 
L 129.477356 203.421159 
L 129.517942 204.680928 
L 129.558529 184.341843 
L 129.599116 193.802457 
L 129.639703 200.575565 
L 129.720877 200.511341 
L 129.761464 174.550231 
L 129.802051 205.308342 
L 129.842638 203.776859 
L 129.883224 180.61194 
L 129.923811 193.86668 
L 129.964398 206.894168 
L 130.004985 197.557061 
L 130.045572 181.402383 
L 130.086159 190.205942 
L 130.126746 214.47748 
L 130.167333 181.046684 
L 130.289093 202.630716 
L 130.370267 178.270253 
L 130.410854 212.792848 
L 130.451441 194.810272 
L 130.492028 178.551849 
L 130.532615 198.747666 
L 130.573202 193.204684 
L 130.654375 195.294418 
L 130.694962 192.794642 
L 130.735549 198.490772 
L 130.816723 203.104982 
L 130.85731 180.735447 
L 130.897897 201.361067 
L 130.938484 185.74982 
L 130.979071 185.586791 
L 131.019657 219.427629 
L 131.060244 159.126713 
L 131.141418 190.205942 
L 131.182005 184.821049 
L 131.222592 202.892551 
L 131.263179 179.663409 
L 131.303766 200.768235 
L 131.344353 180.799671 
L 131.384939 195.70446 
L 131.425526 204.582122 
L 131.466113 178.690176 
L 131.5067 197.221123 
L 131.547287 198.223997 
L 131.628461 206.884287 
L 131.669048 173.576998 
L 131.750222 205.935756 
L 131.790808 161.567206 
L 131.831395 214.719553 
L 131.993743 185.517627 
L 132.03433 217.812161 
L 132.074917 183.492117 
L 132.115504 185.428702 
L 132.237264 199.814763 
L 132.277851 183.146298 
L 132.318438 197.660806 
L 132.359025 215.332146 
L 132.399612 171.185908 
L 132.480786 194.291543 
L 132.561959 200.694131 
L 132.602546 167.688198 
L 132.643133 208.815932 
L 132.68372 206.054322 
L 132.724307 187.528316 
L 132.764894 191.455829 
L 132.846068 186.594605 
L 132.886654 208.509636 
L 132.927241 172.050455 
L 132.967828 209.636017 
L 133.008415 205.105791 
L 133.049002 177.045067 
L 133.130176 193.249147 
L 133.21135 199.631974 
L 133.251936 169.886618 
L 133.292523 225.988305 
L 133.33311 190.452955 
L 133.373697 180.532896 
L 133.414284 211.804795 
L 133.454871 178.057822 
L 133.495458 203.490323 
L 133.576632 185.008779 
L 133.617219 203.129684 
L 133.657805 197.290286 
L 133.698392 185.147107 
L 133.738979 200.042016 
L 133.86074 187.508555 
L 133.901327 197.606464 
L 133.982501 192.824284 
L 134.023087 197.641045 
L 134.104261 198.233878 
L 134.185435 182.089081 
L 134.226022 204.340049 
L 134.266609 200.289029 
L 134.307196 183.403192 
L 134.347783 187.291183 
L 134.388369 203.179086 
L 134.469543 193.021895 
L 134.51013 193.67401 
L 134.550717 196.529485 
L 134.591304 196.050279 
L 134.631891 184.188695 
L 134.672478 196.677693 
L 134.713065 192.537748 
L 134.753651 209.818807 
L 134.794238 171.116745 
L 134.875412 193.204684 
L 134.956586 206.069143 
L 134.997173 169.980483 
L 135.03776 213.272054 
L 135.078347 193.209625 
L 135.118934 171.704637 
L 135.15952 207.585806 
L 135.240694 185.700417 
L 135.281281 185.917789 
L 135.321868 202.107048 
L 135.403042 194.148276 
L 135.443629 190.996384 
L 135.484216 196.030518 
L 135.524802 195.32406 
L 135.646563 188.51637 
L 135.68715 210.144865 
L 135.727737 178.556789 
L 135.808911 214.052617 
L 135.849498 178.324596 
L 135.930671 186.599546 
L 136.011845 202.635657 
L 136.052432 196.608529 
L 136.093019 177.865151 
L 136.133606 205.886353 
L 136.174193 181.071385 
L 136.255366 173.61652 
L 136.295953 213.232532 
L 136.33654 184.381365 
L 136.377127 184.65802 
L 136.417714 222.055851 
L 136.458301 161.226328 
L 136.498888 210.268371 
L 136.580062 190.117017 
L 136.620648 200.229746 
L 136.782996 188.560832 
L 136.86417 202.284898 
L 136.945344 188.684339 
L 136.985931 208.786291 
L 137.026517 178.418461 
L 137.067104 206.622453 
L 137.107691 179.223725 
L 137.148278 207.753775 
L 137.188865 189.603229 
L 137.229452 185.804162 
L 137.270039 198.698263 
L 137.351213 194.59784 
L 137.391799 197.468136 
L 137.432386 188.076686 
L 137.472973 195.111628 
L 137.51356 205.565236 
L 137.554147 168.122942 
L 137.594734 196.554186 
L 137.635321 210.900726 
L 137.675908 178.700057 
L 137.716495 192.503166 
L 137.757081 204.265945 
L 137.797668 196.015697 
L 137.838255 182.296572 
L 137.878842 204.779733 
L 137.919429 189.63287 
L 137.960016 189.26235 
L 138.04119 185.665835 
L 138.081777 202.442986 
L 138.203537 190.991444 
L 138.244124 202.3343 
L 138.284711 201.435171 
L 138.325298 173.97716 
L 138.365885 207.645089 
L 138.406472 187.755568 
L 138.528232 200.205045 
L 138.609406 191.401486 
L 138.649993 192.720538 
L 138.731167 197.260645 
L 138.771754 174.367441 
L 138.812341 206.167949 
L 138.893514 184.445589 
L 138.974688 172.401214 
L 139.015275 210.722876 
L 139.055862 187.864254 
L 139.137036 196.030518 
L 139.177623 189.128963 
L 139.21821 197.033392 
L 139.258796 194.563258 
L 139.299383 184.825989 
L 139.33997 207.85258 
L 139.380557 193.100939 
L 139.421144 185.986952 
L 139.461731 211.656587 
L 139.502318 185.547269 
L 139.542905 196.569007 
L 139.624078 182.494183 
L 139.664665 218.439575 
L 139.705252 180.221659 
L 139.745839 184.559215 
L 139.786426 201.23262 
L 139.8676 201.183218 
L 139.908187 182.746136 
L 139.948774 196.524545 
L 139.98936 199.108305 
L 140.029947 210.204148 
L 140.070534 162.73805 
L 140.111121 205.792488 
L 140.232882 183.581042 
L 140.273469 192.20181 
L 140.314056 213.721619 
L 140.354643 176.427533 
L 140.395229 200.901622 
L 140.435816 172.5099 
L 140.476403 207.501821 
L 140.557577 178.047941 
L 140.598164 188.294058 
L 140.638751 208.969081 
L 140.679338 189.173425 
L 140.719925 185.21133 
L 140.801098 208.420711 
L 140.841685 184.900093 
L 140.882272 185.532448 
L 140.922859 218.864438 
L 140.963446 170.691882 
L 141.004033 202.438046 
L 141.085207 182.454661 
L 141.125793 203.25319 
L 141.206967 200.906563 
L 141.288141 184.406067 
L 141.328728 213.55859 
L 141.369315 175.27151 
L 141.409902 204.028812 
L 141.450489 204.759972 
L 141.491075 181.950753 
L 141.572249 184.544394 
L 141.612836 219.393047 
L 141.653423 172.416035 
L 141.734597 218.587783 
L 141.775184 178.561729 
L 141.856357 198.737785 
L 141.896944 179.633767 
L 141.937531 206.943571 
L 141.978118 192.928029 
L 142.018705 185.853565 
L 142.059292 205.382446 
L 142.099879 204.824196 
L 142.181053 179.757274 
L 142.22164 220.588592 
L 142.262226 191.263159 
L 142.302813 166.601339 
L 142.3434 212.284001 
L 142.424574 180.063571 
L 142.586922 223.567574 
L 142.627508 175.81 
L 142.708682 206.894168 
L 142.789856 218.568022 
L 142.830443 166.710025 
L 142.87103 221.537123 
L 142.952204 184.168934 
L 143.033377 204.829136 
L 143.073964 194.296484 
L 143.114551 178.413521 
L 143.155138 195.916892 
L 143.195725 195.571073 
L 143.236312 197.665747 
L 143.276899 185.354598 
L 143.317486 200.965846 
L 143.358072 189.524185 
L 143.398659 189.267291 
L 143.479833 202.195973 
L 143.52042 183.042552 
L 143.561007 208.717127 
L 143.642181 188.303938 
L 143.723355 194.988121 
L 143.763941 195.314179 
L 143.804528 201.494455 
L 143.845115 171.734278 
L 143.885702 218.414874 
L 143.926289 182.341034 
L 144.088637 228.517722 
L 144.16981 169.540799 
L 144.210397 227.648235 
L 144.250984 187.77533 
L 144.291571 171.151327 
L 144.413332 206.543409 
L 144.453919 174.288397 
L 144.494505 192.246272 
L 144.535092 207.022615 
L 144.575679 191.64356 
L 144.738027 205.975278 
L 144.819201 177.232797 
L 144.859787 197.996745 
L 144.900374 210.396818 
L 144.981548 175.691433 
L 145.022135 223.567574 
L 145.103309 193.708592 
L 145.143896 189.825541 
L 145.184483 204.740211 
L 145.225069 201.746408 
L 145.265656 169.338248 
L 145.306243 197.892999 
L 145.34683 196.425739 
L 145.387417 213.652455 
L 145.428004 166.507474 
L 145.468591 198.480891 
L 145.509178 213.988393 
L 145.590352 173.996921 
L 145.630938 225.775874 
L 145.712112 208.929559 
L 145.752699 168.024137 
L 145.793286 195.645177 
L 145.833873 208.697366 
L 145.87446 194.78063 
L 145.915047 174.653977 
L 145.955634 203.875664 
L 145.99622 204.285706 
L 146.036807 198.772367 
L 146.077394 173.636282 
L 146.117981 190.141718 
L 146.158568 205.09591 
L 146.199155 198.065908 
L 146.239742 183.477296 
L 146.280329 198.10049 
L 146.320916 203.939888 
L 146.361502 198.184475 
L 146.442676 169.990364 
L 146.483263 220.050103 
L 146.52385 199.478825 
L 146.605024 177.583556 
L 146.645611 221.794017 
L 146.726784 190.576462 
L 146.767371 188.52131 
L 146.848545 202.230555 
L 146.889132 159.42313 
L 146.929719 224.007257 
L 146.970306 177.326662 
L 147.010893 204.685868 
L 147.05148 188.615175 
L 147.092067 166.003567 
L 147.132653 234.772102 
L 147.17324 165.613286 
L 147.213827 203.228489 
L 147.254414 206.904049 
L 147.335588 188.027283 
L 147.376175 189.786019 
L 147.416762 207.254808 
L 147.457349 177.124111 
L 147.497935 195.412984 
L 147.538522 202.976535 
L 147.579109 191.989378 
L 147.619696 188.758443 
L 147.70087 184.984078 
L 147.741457 223.671319 
L 147.822631 183.348849 
L 147.863217 196.079921 
L 147.903804 201.840273 
L 147.944391 170.405346 
L 148.025565 192.359899 
L 148.106739 207.412896 
L 148.147326 182.168125 
L 148.228499 196.198487 
L 148.269086 195.763743 
L 148.309673 169.605023 
L 148.35026 212.931176 
L 148.390847 185.221211 
L 148.431434 184.238097 
L 148.472021 186.416756 
L 148.553195 182.044618 
L 148.593781 218.696469 
L 148.634368 163.192554 
L 148.715542 202.13669 
L 148.796716 177.267379 
L 148.837303 200.343372 
L 148.87789 199.839465 
L 148.918477 200.842339 
L 148.959064 179.999347 
L 148.99965 214.521942 
L 149.080824 180.745328 
L 149.161998 186.950305 
L 149.243172 208.099593 
L 149.283759 177.173514 
L 149.364932 180.621821 
L 149.446106 207.931624 
L 149.486693 163.815028 
L 149.52728 202.541792 
L 149.567867 213.084324 
L 149.608454 166.966919 
L 149.689628 196.895065 
L 149.730214 180.389628 
L 149.770801 204.947702 
L 149.811388 190.606103 
L 149.892562 189.143784 
L 149.933149 211.073635 
L 150.014323 171.808382 
L 150.05491 218.083876 
L 150.136083 191.189055 
L 150.217257 177.499571 
L 150.298431 226.541615 
L 150.339018 155.065813 
L 150.420192 182.602869 
L 150.460779 205.08109 
L 150.501365 189.548886 
L 150.541952 163.647059 
L 150.582539 209.235855 
L 150.663713 177.222916 
L 150.744887 176.481876 
L 150.785474 218.992885 
L 150.866647 189.726736 
L 150.947821 193.8568 
L 150.988408 213.469665 
L 151.028995 169.74829 
L 151.069582 193.970426 
L 151.110169 218.059174 
L 151.150756 179.460858 
L 151.191343 180.77991 
L 151.231929 214.546644 
L 151.272516 180.41433 
L 151.313103 199.236752 
L 151.475451 188.34346 
L 151.516038 189.598289 
L 151.556625 183.961442 
L 151.597211 193.367713 
L 151.637798 194.499035 
L 151.718972 186.056116 
L 151.840733 209.729882 
L 152.00308 174.046324 
L 152.246602 215.159237 
L 152.287189 186.564964 
L 152.368362 203.317414 
L 152.490123 175.464181 
L 152.449536 208.208279 
L 152.53071 191.678142 
L 152.571297 200.743534 
L 152.611884 184.64814 
L 152.693058 195.758803 
L 152.774231 205.006985 
L 152.895992 190.858057 
L 152.936579 195.556252 
L 152.977166 189.766258 
L 153.017753 177.65272 
L 153.05834 189.484662 
L 153.098926 195.595774 
L 153.139513 190.937101 
L 153.1801 186.984887 
L 153.220687 188.373102 
L 153.261274 206.167949 
L 153.301861 198.495712 
L 153.342448 186.046236 
L 153.383035 199.058902 
L 153.423622 203.534786 
L 153.504795 180.9627 
L 153.545382 195.803266 
L 153.667143 188.980755 
L 153.748317 201.049831 
L 153.788904 191.515113 
L 153.829491 192.330257 
L 153.870077 199.953091 
L 153.910664 194.217439 
L 153.991838 190.73455 
L 154.032425 180.557598 
L 154.073012 197.492837 
L 154.113599 196.687574 
L 154.154186 188.758443 
L 154.194773 193.822218 
L 154.235359 203.001237 
L 154.275946 200.328551 
L 154.397707 189.558766 
L 154.438294 203.831202 
L 154.478881 187.829672 
L 154.519468 187.404809 
L 154.600641 201.672304 
L 154.641228 192.399421 
L 154.681815 191.406427 
L 154.803576 200.214925 
L 154.844163 195.842788 
L 154.88475 189.553826 
L 154.925337 196.494903 
L 154.965923 200.155642 
L 155.00651 187.661703 
L 155.087684 190.966743 
L 155.128271 198.070849 
L 155.168858 186.337711 
L 155.209445 195.52167 
L 155.250032 193.590025 
L 155.290619 197.245824 
L 155.331205 191.539814 
L 155.452966 194.741108 
L 155.493553 190.413433 
L 155.574727 192.616793 
L 155.655901 197.606464 
L 155.696488 189.860123 
L 155.737074 207.363493 
L 155.818248 196.929647 
L 155.858835 204.71551 
L 155.899422 186.372293 
L 155.940009 193.1207 
L 155.980596 203.208728 
L 156.021183 188.501549 
L 156.06177 199.587511 
L 156.102356 179.836318 
L 156.142943 201.578439 
L 156.18353 191.791768 
L 156.224117 179.49544 
L 156.264704 205.935756 
L 156.345878 194.306364 
L 156.427052 179.574484 
L 156.548812 195.279597 
L 156.589399 197.403913 
L 156.629986 183.052433 
L 156.670573 196.62829 
L 156.71116 201.939079 
L 156.751747 187.656763 
L 156.83292 194.60278 
L 156.873507 193.585085 
L 156.914094 196.643111 
L 156.954681 189.953988 
L 156.995268 192.685956 
L 157.035855 204.265945 
L 157.076442 196.564067 
L 157.117029 180.651463 
L 157.157616 192.656315 
L 157.198203 199.271334 
L 157.238789 196.539366 
L 157.279376 186.505681 
L 157.319963 192.399421 
L 157.401137 203.850963 
L 157.482311 185.932609 
L 157.522898 201.622902 
L 157.604071 192.107945 
L 157.644658 188.195252 
L 157.685245 194.301424 
L 157.725832 201.291904 
L 157.766419 194.553378 
L 157.807006 185.196509 
L 157.847593 203.949768 
L 157.928767 201.420351 
L 157.969353 195.200553 
L 158.00994 197.705269 
L 158.050527 202.339241 
L 158.091114 197.458255 
L 158.131701 194.266842 
L 158.172288 195.951474 
L 158.253462 206.138307 
L 158.294049 193.219505 
L 158.334635 193.713532 
L 158.456396 206.414962 
L 158.496983 190.645625 
L 158.578157 197.863357 
L 158.740504 185.300255 
L 158.781091 188.550952 
L 158.821678 183.091955 
L 158.862265 174.925692 
L 158.902852 190.872878 
L 158.984026 179.579424 
L 159.024613 179.179263 
L 159.0652 177.29702 
L 159.105786 181.33322 
L 159.146373 176.55598 
L 159.18696 173.79437 
L 159.227547 185.39906 
L 159.308721 181.654337 
L 159.389895 187.375168 
L 159.552242 197.082795 
L 159.917524 217.332955 
L 159.958111 214.457719 
L 159.998698 209.937373 
L 160.039285 214.225526 
L 160.079872 213.291815 
L 160.120459 215.682905 
L 160.161046 208.440472 
L 160.242219 209.240795 
L 160.282806 207.65991 
L 160.404567 214.867761 
L 160.566915 203.747217 
L 160.607501 205.881413 
L 160.648088 204.270885 
L 160.769849 194.074172 
L 160.810436 193.767875 
L 160.851023 196.25777 
L 161.216305 129.22821 
L 161.297479 133.946166 
L 161.703347 192.033841 
L 161.906282 223.562633 
L 162.068629 242.142983 
L 162.230977 228.937645 
L 162.515085 194.316245 
L 162.758607 182.943747 
L 162.961541 194.197678 
L 163.205062 225.173161 
L 163.570344 206.182769 
L 163.651518 188.862189 
L 163.935626 112.036076 
L 163.976213 112.288029 
L 164.382082 191.910334 
L 164.747364 266.493565 
L 164.787951 261.637281 
L 164.950299 237.652279 
L 165.315581 165.959105 
L 165.356168 167.258395 
L 165.396755 165.089617 
L 165.437341 166.156715 
L 165.559102 173.250941 
L 165.924384 246.1446 
L 166.005558 244.11415 
L 166.046145 245.176307 
L 166.086732 244.030165 
L 166.127319 243.990643 
L 166.249079 215.233341 
L 166.573774 84.074157 
L 166.614361 86.811066 
L 166.776709 119.016675 
L 167.304338 272.589856 
L 167.344925 276.472907 
L 167.385512 275.652823 
L 167.466686 262.338799 
L 168.034903 138.130573 
L 168.278424 189.865063 
L 168.643706 269.309518 
L 168.684293 271.280685 
L 168.72488 268.553657 
L 168.84664 263.959207 
L 168.968401 217.79734 
L 169.252509 71.782769 
L 169.293096 72.143409 
L 169.496031 133.64975 
L 169.942486 285.138138 
L 170.02366 295.488 
L 170.064247 293.709503 
L 170.186008 256.099241 
L 170.55129 122.642832 
L 170.632464 123.576543 
L 170.794811 157.180248 
L 171.119506 250.427813 
L 171.281854 257.319487 
L 171.322441 256.657491 
L 171.363028 257.097175 
L 171.647136 200.951025 
L 171.931244 54.062027 
L 172.012418 66.471981 
L 172.418287 251.939535 
L 172.458874 250.408051 
L 172.621221 269.507129 
L 172.702395 269.803545 
L 172.824156 245.41838 
L 173.148851 118.507827 
L 173.230025 118.7499 
L 173.351785 147.09716 
L 173.717067 255.936212 
L 173.757654 255.89669 
L 173.798241 258.584196 
L 173.879415 258.001244 
L 174.001176 245.126905 
L 174.041762 249.691713 
L 174.082349 251.341762 
L 174.285284 236.832194 
L 174.407045 159.739307 
L 174.609979 57.44117 
L 174.650566 53.568 
L 174.73174 76.485905 
L 175.056435 258.011124 
L 175.137609 258.574315 
L 175.218782 250.887257 
L 175.259369 251.282479 
L 175.38113 243.343468 
L 175.421717 249.849801 
L 175.462304 244.12403 
L 175.502891 240.591738 
L 175.827586 107.164971 
L 175.90876 112.984607 
L 176.436389 242.592547 
L 176.476976 240.660902 
L 176.55815 241.876208 
L 176.598737 243.412632 
L 176.67991 238.630452 
L 176.720497 239.361611 
L 176.842258 243.442273 
L 176.882845 241.189511 
L 177.085779 204.601883 
L 177.410474 60.01011 
L 177.613409 179.273128 
L 177.816343 267.778035 
L 178.262799 222.58446 
L 178.587494 112.352253 
L 178.628081 114.348121 
L 178.790429 169.432113 
L 179.03395 237.044626 
L 179.115124 240.24592 
L 179.155711 237.592995 
L 179.439819 230.889051 
L 179.520993 232.415594 
L 179.56158 234.984534 
L 179.642754 233.81369 
L 179.886275 178.808743 
L 180.089209 82.374705 
L 180.170383 67.247603 
L 180.332731 153.129228 
L 180.576252 269.71956 
L 181.063295 200.224806 
L 181.347403 114.530911 
L 181.428577 124.944997 
L 181.590924 185.774521 
L 181.834446 244.608176 
L 181.875033 247.468592 
L 182.077967 227.697638 
L 182.118554 228.003935 
L 182.199728 221.576645 
L 182.240315 222.100314 
L 182.362075 226.917076 
L 182.443249 224.086302 
L 182.646184 198.515473 
L 182.930292 77.809897 
L 182.970879 74.297366 
L 183.417334 269.181071 
L 183.457921 266.147746 
L 183.74203 205.871532 
L 183.823203 202.88761 
L 184.107312 123.255425 
L 184.147898 124.406508 
L 184.310246 155.337528 
L 184.594354 248.644376 
L 184.716115 239.559222 
L 185.000223 206.721259 
L 185.04081 208.39601 
L 185.162571 218.889139 
L 185.203158 217.021718 
L 185.284331 222.164537 
L 185.324918 220.237833 
L 185.527853 166.957039 
L 185.649613 112.11018 
L 185.6902 116.803435 
L 185.771374 85.635282 
L 185.811961 93.14943 
L 186.177243 255.921391 
L 186.258417 266.967831 
L 186.583112 192.127706 
L 186.623699 195.946533 
L 186.948394 136.021078 
L 187.151328 170.968537 
L 187.39485 249.849801 
L 187.435437 248.945732 
L 187.841306 193.787636 
L 187.881893 200.205045 
L 188.125414 220.771382 
L 188.166001 219.724045 
L 188.247175 212.353164 
L 188.287761 214.10696 
L 188.328348 217.826982 
L 188.653043 93.539711 
L 188.896565 188.995576 
L 189.099499 255.936212 
L 189.140086 259.241251 
L 189.627129 171.042641 
L 189.667716 172.702571 
L 189.74889 159.546636 
L 189.789476 153.104526 
L 189.830063 155.223901 
L 190.032998 179.633767 
L 190.276519 245.23065 
L 190.479454 216.636377 
L 190.682388 187.246721 
L 190.722975 186.219145 
L 191.210018 233.112172 
L 191.291191 205.510893 
L 191.534713 100.456087 
L 191.5753 88.461115 
L 191.615887 100.816726 
L 192.062342 257.309606 
L 192.508798 175.395017 
L 192.549385 176.975903 
L 192.589972 177.455109 
L 192.630559 175.711194 
L 192.711733 166.033209 
L 192.752319 166.863174 
L 192.833493 168.019196 
L 192.87408 166.393848 
L 193.117602 219.225078 
L 193.198775 234.861027 
L 193.239362 232.504519 
L 193.361123 222.016329 
L 193.604644 182.681913 
L 193.645231 183.151238 
L 194.091687 240.132293 
L 194.132274 237.751084 
L 194.172861 236.995223 
L 194.538143 84.918943 
L 194.57873 97.808103 
L 194.984599 262.462306 
L 195.025185 262.704379 
L 195.471641 167.870988 
L 195.552815 172.060336 
L 195.593402 169.486456 
L 195.633989 163.602597 
L 195.674576 165.055035 
L 195.755749 171.556429 
L 195.796336 169.832275 
L 195.836923 168.943027 
L 196.161618 232.217983 
L 196.242792 226.704644 
L 196.283379 225.914201 
L 196.608074 186.525442 
L 196.648661 191.870812 
L 197.05453 232.109298 
L 197.095117 231.580689 
L 197.257464 205.076149 
L 197.500986 97.516627 
L 197.541573 85.136315 
L 197.58216 94.641391 
L 198.028615 273.21233 
L 198.272137 191.179174 
L 198.475071 154.967008 
L 198.88094 190.709849 
L 199.124461 218.889139 
L 199.165048 221.626048 
L 199.205635 220.588592 
L 199.611504 189.464901 
L 200.260894 228.764736 
L 200.504416 137.834157 
L 200.626176 91.30671 
L 200.666763 102.204942 
L 201.072632 263.974028 
L 201.113219 262.887169 
L 201.356741 182.237289 
L 201.478501 157.906467 
L 201.519088 158.13372 
L 201.559675 157.269173 
L 201.88437 198.337623 
L 201.924957 198.688382 
L 202.046718 206.400141 
L 202.087305 202.294778 
L 202.168478 202.665298 
L 202.209065 205.253999 
L 202.290239 203.786739 
L 202.493173 198.683442 
L 202.53376 198.772367 
L 202.939629 214.126721 
L 202.980216 212.896594 
L 203.06139 209.794105 
L 203.142564 210.633951 
L 203.223738 211.024232 
L 203.264324 211.562722 
L 203.386085 221.912584 
L 203.426672 216.49805 
L 203.751367 104.413242 
L 203.832541 125.873767 
L 203.994888 173.9821 
L 204.23841 245.675274 
L 204.400757 219.63512 
L 204.684866 167.090426 
L 204.725452 167.866048 
L 205.171908 210.782159 
L 205.293669 206.059263 
L 205.334256 205.664041 
L 205.53719 195.719281 
L 205.618364 194.78063 
L 205.699538 202.092227 
L 205.943059 218.133278 
L 205.983646 214.719553 
L 206.105407 206.829944 
L 206.267754 193.649309 
L 206.308341 194.859674 
L 206.430102 206.182769 
L 206.633036 232.736712 
L 206.673623 224.79276 
L 206.998318 107.224254 
L 207.201253 142.6855 
L 207.444774 237.30646 
L 207.485361 239.401134 
L 207.525948 236.367809 
L 207.647709 225.632606 
L 208.012991 171.319296 
L 208.094164 168.567566 
L 208.54062 214.734374 
L 208.621794 211.483677 
L 208.865315 194.983181 
L 208.905902 195.14621 
L 209.06825 206.237112 
L 209.190011 213.963692 
L 209.230597 213.855006 
L 209.311771 210.391878 
L 209.555293 194.380468 
L 209.636466 199.404721 
L 209.879988 231.002677 
L 209.920575 228.10768 
L 210.24527 110.079729 
L 210.407617 118.725199 
L 210.529378 163.321001 
L 210.813486 241.17469 
L 210.854073 242.795098 
L 210.89466 242.632069 
L 211.097594 205.876473 
L 211.341116 157.288934 
L 211.381703 158.222644 
L 211.54405 175.488882 
L 211.828159 224.723596 
L 211.868745 224.748298 
L 212.07168 205.412087 
L 212.234027 190.744431 
L 212.274614 191.189055 
L 212.477549 204.512959 
L 212.599309 209.097528 
L 212.639896 207.867401 
L 212.883418 199.513407 
L 212.924005 200.11118 
L 212.964591 199.888867 
L 213.289287 216.527691 
L 213.329874 212.160494 
L 213.654569 124.460851 
L 214.060438 200.200104 
L 214.263372 234.475686 
L 214.303959 234.836326 
L 214.466306 216.69072 
L 214.750415 162.486096 
L 214.791002 162.980123 
L 214.993936 184.47523 
L 215.237457 220.761501 
L 215.278044 221.897763 
L 215.318631 221.764376 
L 215.480979 217.807221 
L 215.846261 191.386666 
L 215.886848 189.978689 
L 215.927435 190.764192 
L 215.968021 191.080369 
L 216.536238 210.772279 
L 216.617412 209.230915 
L 216.657999 208.677605 
L 216.698586 210.806861 
L 216.779759 209.818807 
L 217.104454 138.540615 
L 217.185628 149.508011 
L 217.672671 205.337983 
L 217.835018 208.124295 
L 217.956779 199.962972 
L 218.2003 183.655146 
L 218.240887 184.84081 
L 218.687343 214.269989 
L 218.768517 211.261365 
L 219.052625 195.15609 
L 219.174386 192.765001 
L 219.25556 193.461578 
L 219.539668 201.553738 
L 219.702015 200.511341 
L 219.945537 193.67401 
L 219.986124 194.998002 
L 220.229645 208.623262 
L 220.351406 214.84306 
L 220.391993 213.217711 
L 220.757275 148.174139 
L 220.797862 153.771463 
L 220.838448 157.531007 
L 220.879035 155.955061 
L 220.919622 154.482861 
L 221.000796 165.628107 
L 221.284904 193.209625 
L 221.528426 202.373822 
L 221.569012 202.037884 
L 221.609599 201.988482 
L 221.73136 204.053514 
L 221.812534 201.489514 
L 221.853121 203.154385 
L 221.934295 207.348673 
L 222.015468 206.069143 
L 222.056055 206.222291 
L 222.137229 207.363493 
L 222.461924 195.921832 
L 222.543098 197.102556 
L 222.867793 202.956774 
L 222.989554 203.119803 
L 223.354836 191.357024 
L 223.395423 192.547629 
L 223.517183 194.508915 
L 223.801292 207.363493 
L 223.882465 204.987224 
L 224.044813 201.924258 
L 224.125987 198.802008 
L 224.491269 157.481604 
L 224.775377 180.765089 
L 224.815964 183.170999 
L 224.897138 182.642391 
L 224.937724 182.103901 
L 224.978311 183.36367 
L 225.018898 181.985335 
L 225.059485 183.136418 
L 225.100072 181.239355 
L 225.140659 182.62757 
L 225.181246 183.156179 
L 225.749462 215.94474 
L 225.830636 218.474157 
L 225.91181 220.978873 
L 226.398853 195.106688 
L 226.439439 194.96342 
L 226.682961 200.832459 
L 226.764135 201.58832 
L 227.170004 191.569456 
L 227.413525 185.922729 
L 227.494699 187.651823 
L 227.900568 203.421159 
L 227.981741 204.433914 
L 228.022328 202.773984 
L 228.26585 172.13938 
L 228.347023 161.483221 
L 228.38761 163.859491 
L 228.468784 172.070217 
L 228.509371 170.785747 
L 228.549958 170.449808 
L 228.712305 180.132734 
L 228.752892 177.29702 
L 228.834066 174.817006 
L 228.874653 176.496697 
L 229.077587 184.796348 
L 229.402283 213.968632 
L 229.442869 214.349033 
L 229.56463 220.534249 
L 229.605217 220.134087 
L 230.051673 204.799494 
L 230.335781 197.937461 
L 230.376368 198.787188 
L 230.416955 198.688382 
L 230.782237 184.924795 
L 230.822824 186.505681 
L 231.147519 192.76006 
L 231.309866 190.151599 
L 231.350453 190.408493 
L 231.431627 191.727544 
L 231.675148 198.856351 
L 231.756322 198.64886 
L 231.796909 199.459064 
L 231.878083 198.979858 
L 231.91867 198.421608 
L 231.959257 198.45619 
L 231.999844 199.439303 
L 232.162191 171.931889 
L 232.243365 176.817814 
L 232.283952 174.871349 
L 232.324539 164.674635 
L 232.365126 166.947158 
L 232.486886 177.242677 
L 232.56806 172.653168 
L 232.689821 180.073451 
L 232.730408 179.831378 
L 232.811581 174.782424 
L 232.892755 176.220042 
L 233.339211 217.209448 
L 233.379798 217.036539 
L 233.582732 222.312745 
L 233.623319 221.230827 
L 234.110362 198.144953 
L 234.150949 198.767427 
L 234.232123 199.617153 
L 234.353883 197.502718 
L 234.39447 198.387026 
L 234.435057 198.312922 
L 234.516231 194.750988 
L 234.719165 186.446397 
L 234.800339 184.583916 
L 234.962687 189.247529 
L 235.165621 187.844493 
L 235.206208 188.422505 
L 235.246795 187.637002 
L 235.287382 188.076686 
L 235.368556 189.296932 
L 235.693251 202.161391 
L 235.774425 201.316605 
L 235.896185 199.715958 
L 235.936772 200.48664 
L 235.977359 200.353253 
L 236.017946 199.636914 
L 236.058533 200.881861 
L 236.09912 202.013183 
L 236.464402 164.936469 
L 236.829684 178.660534 
L 236.951444 172.67787 
L 236.992031 174.930632 
L 237.438487 218.71129 
L 237.519661 218.335829 
L 237.560248 217.337895 
L 237.641422 217.575028 
L 237.682008 218.355591 
L 238.006704 206.044442 
L 238.290812 200.787996 
L 238.331399 200.753414 
L 238.534333 198.248698 
L 238.615507 197.764552 
L 238.940202 187.019468 
L 238.980789 186.209264 
L 239.021376 187.246721 
L 239.061963 187.844493 
L 239.10255 187.276362 
L 239.264897 184.183754 
L 239.305484 184.490051 
L 239.467832 186.999707 
L 239.873701 200.951025 
L 239.914287 200.837399 
L 239.954874 200.363133 
L 239.995461 198.120251 
L 240.076635 198.718024 
L 240.157809 198.708143 
L 240.279569 197.487897 
L 240.320156 198.955157 
L 240.40133 188.862189 
L 240.523091 171.230371 
L 240.563678 176.36825 
L 240.726025 166.087552 
L 240.807199 173.932698 
L 240.888373 173.715326 
L 240.92896 171.452683 
L 240.969547 173.917877 
L 241.05072 176.397892 
L 241.091307 176.150878 
L 241.172481 173.507835 
L 241.416002 197.769492 
L 241.618937 221.245647 
L 241.659524 221.132021 
L 241.700111 222.569639 
L 241.740698 221.497601 
L 241.862458 218.459336 
L 241.903045 219.373286 
L 241.943632 219.882133 
L 242.349501 203.579248 
L 242.633609 196.183666 
L 242.714783 196.326934 
L 242.836544 195.15115 
L 243.242413 182.528765 
L 243.282999 182.607809 
L 243.323586 182.963508 
L 243.445347 182.316333 
L 243.688868 184.134352 
L 244.175911 201.286963 
L 244.257085 202.754223 
L 244.460019 198.268459 
L 244.541193 196.040398 
L 244.58178 196.465262 
L 244.703541 199.538108 
L 244.865888 177.025306 
L 244.947062 179.806677 
L 244.987649 179.86596 
L 245.068823 170.331242 
L 245.10941 172.722332 
L 245.190583 178.319656 
L 245.23117 175.676612 
L 245.271757 172.994047 
L 245.312344 173.858594 
L 245.352931 174.989915 
L 245.434105 183.72431 
L 245.515279 182.158244 
L 245.555865 183.096895 
L 245.921147 213.025041 
L 246.042908 210.772279 
L 246.083495 211.108217 
L 246.124082 211.399693 
L 246.164669 210.134984 
L 246.205256 210.905666 
L 246.327016 215.722427 
L 246.367603 215.618682 
L 246.570538 208.242861 
L 246.814059 196.173786 
L 246.895233 195.734102 
L 246.93582 196.025578 
L 247.05758 197.705269 
L 247.544623 181.180071 
L 247.58521 181.90135 
L 247.706971 184.252918 
L 247.788144 183.72925 
L 247.828731 184.060248 
L 247.991079 187.370228 
L 248.031666 187.093573 
L 248.437535 200.452058 
L 248.478122 198.890933 
L 248.518708 199.118186 
L 248.640469 200.802817 
L 248.681056 200.733653 
L 248.76223 199.498586 
L 248.802817 199.958031 
L 248.88399 201.089353 
L 248.924577 200.209985 
L 249.168099 196.025578 
L 249.330446 173.96728 
L 249.371033 177.771286 
L 249.41162 177.489691 
L 249.452207 176.338608 
L 249.533381 170.682001 
L 249.573968 172.381453 
L 249.655141 175.241869 
L 249.695728 173.824012 
L 249.776902 171.684876 
L 250.101597 191.900454 
L 250.385705 211.834436 
L 250.426292 211.058814 
L 250.507466 209.260557 
L 250.750988 215.356848 
L 250.832161 215.376609 
L 250.872748 214.309511 
L 251.23803 200.180343 
L 251.359791 200.284089 
L 251.400378 200.007434 
L 251.88742 186.67859 
L 251.928007 186.900902 
L 251.968594 187.192378 
L 252.130942 183.462475 
L 252.171529 183.497057 
L 252.252702 183.012911 
L 252.374463 184.623438 
L 252.617985 191.816469 
L 252.658571 191.426188 
L 252.699158 191.707783 
L 252.739745 191.870812 
L 252.820919 191.431128 
L 252.861506 191.500292 
L 252.94268 193.283729 
L 253.267375 202.092227 
L 253.429722 197.675627 
L 253.470309 197.823835 
L 253.551483 195.788445 
L 253.673244 195.990996 
L 253.713831 196.396098 
L 253.754417 195.986056 
L 253.916765 177.450169 
L 253.997939 179.67823 
L 254.038526 179.609066 
L 254.1197 171.917068 
L 254.160286 172.445677 
L 254.282047 178.606192 
L 254.322634 176.980843 
L 254.363221 176.847456 
L 255.012611 210.214028 
L 255.053198 209.314899 
L 255.093785 207.180704 
L 255.134372 208.756649 
L 255.337306 211.108217 
L 255.41848 211.582483 
L 255.499654 209.631077 
L 255.662001 205.318222 
L 255.702588 205.002045 
L 256.027283 193.876561 
L 256.149044 193.550503 
L 256.473739 187.345526 
L 256.757847 182.558406 
L 257.082543 186.327831 
L 257.488412 195.580954 
L 257.77252 198.950217 
L 257.89428 200.49652 
L 257.934867 200.422416 
L 258.016041 198.135072 
L 258.097215 198.204236 
L 258.178389 197.433554 
L 258.300149 195.595774 
L 258.340736 195.739042 
L 258.381323 195.857609 
L 258.42191 195.650117 
L 258.462497 195.724221 
L 258.624844 180.705806 
L 258.706018 182.647331 
L 258.827779 174.678678 
L 258.908953 177.484751 
L 258.94954 180.493374 
L 259.030713 178.58643 
L 259.0713 178.546908 
L 259.720691 208.22804 
L 259.801864 206.805243 
L 259.964212 210.762398 
L 260.004799 210.485743 
L 260.167146 208.381189 
L 260.735363 194.336006 
L 260.89771 195.669878 
L 261.060058 191.935035 
L 261.303579 183.971323 
L 261.465927 184.677781 
L 261.587688 186.154922 
L 261.709448 188.15079 
L 261.750035 188.111268 
L 261.912383 189.484662 
L 261.95297 189.375976 
L 262.358838 196.079921 
L 262.399425 195.986056 
L 262.521186 197.186541 
L 262.683534 197.650926 
L 262.724121 197.670687 
L 262.764707 197.532359 
L 262.886468 195.743982 
L 262.927055 195.971235 
L 263.089403 194.355767 
L 263.25175 198.263519 
L 263.292337 198.046147 
L 263.332924 197.562001 
L 263.495271 181.352981 
L 263.535858 183.768772 
L 263.617032 180.607 
L 263.698206 173.710386 
L 263.738793 175.350555 
L 264.022901 187.503615 
L 264.063488 191.169294 
L 264.144662 189.06474 
L 264.185249 189.4402 
L 264.550531 207.654969 
L 264.631704 205.792488 
L 264.672291 205.011926 
L 264.712878 206.108665 
L 264.753465 206.424842 
L 264.834639 208.000788 
L 264.875226 207.156002 
L 265.037573 208.929559 
L 265.565203 196.208368 
L 265.646377 195.541431 
L 265.686964 195.734102 
L 265.72755 196.672753 
L 265.768137 196.396098 
L 265.849311 194.508915 
L 266.092833 188.279237 
L 266.174006 186.184563 
L 266.25518 186.67365 
L 266.458115 184.252918 
L 266.498701 185.418822 
L 266.579875 184.964317 
L 266.620462 184.865511 
L 266.742223 186.001773 
L 267.026331 191.84117 
L 267.4322 198.920575 
L 267.635134 200.773176 
L 267.675721 200.540983 
L 267.756895 198.945276 
L 268.041003 194.686765 
L 268.203351 196.569007 
L 268.243938 196.178726 
L 268.284525 195.936653 
L 268.690394 175.656851 
L 269.420958 201.005368 
L 269.542718 207.165883 
L 269.583305 207.037436 
L 269.664479 204.621645 
L 269.705066 205.362685 
L 269.826827 208.144056 
L 269.867413 206.726199 
L 269.948587 207.650029 
L 269.989174 208.089713 
L 270.029761 208.069952 
L 270.638564 195.121509 
L 270.760325 196.410919 
L 270.800912 195.625416 
L 271.125607 185.063122 
L 271.166194 185.063122 
L 271.328542 183.832995 
L 271.369128 183.793473 
L 271.856171 190.601163 
L 272.099692 194.938719 
L 272.221453 196.850602 
L 272.26204 196.633231 
L 272.302627 196.61347 
L 272.343214 196.820961 
L 272.424388 197.789253 
L 272.464974 197.562001 
L 272.586735 196.489963 
L 272.667909 197.631165 
L 272.708496 196.895065 
L 272.870843 193.268908 
L 272.91143 193.540623 
L 273.073778 192.107945 
L 273.236125 194.736168 
L 273.317299 194.889316 
L 273.357886 193.921023 
L 273.520234 183.230283 
L 273.560821 184.900093 
L 273.601407 184.47029 
L 273.723168 179.436157 
L 273.763755 181.535771 
L 273.885516 185.858505 
L 273.926103 185.404001 
L 273.966689 184.875392 
L 274.129037 192.028901 
L 274.210211 189.924346 
L 274.250798 191.347144 
L 274.453732 199.878987 
L 274.575493 205.871532 
L 274.656667 205.377506 
L 274.697254 204.483317 
L 274.73784 205.303402 
L 274.859601 208.870275 
L 274.900188 207.65991 
L 274.940775 206.948511 
L 275.021949 207.007794 
L 275.062536 207.032495 
L 275.103122 206.943571 
L 275.26547 201.603141 
L 275.306057 201.840273 
L 275.711926 194.005008 
L 275.752513 194.350827 
L 275.7931 194.385409 
L 276.280142 184.712363 
L 276.361316 184.964317 
L 276.401903 184.821049 
L 276.483077 184.603677 
L 276.848359 189.07462 
L 277.173054 195.081986 
L 277.457162 197.142078 
L 277.497749 196.381277 
L 277.578923 196.504784 
L 277.660097 197.72009 
L 277.74127 197.557061 
L 277.781857 197.739851 
L 277.984792 195.427805 
L 278.065966 195.595774 
L 278.106552 195.51179 
L 278.2689 196.238009 
L 278.390661 197.626225 
L 278.431248 197.403913 
L 278.837116 178.774161 
L 278.877703 180.750268 
L 278.999464 183.338969 
L 279.080638 182.024857 
L 279.242985 188.496609 
L 279.324159 187.538197 
L 279.730028 206.543409 
L 279.770615 205.708504 
L 279.811202 204.937822 
L 279.851789 205.575116 
L 279.973549 209.50757 
L 280.014136 208.499755 
L 280.09531 207.768595 
L 280.135897 208.045251 
L 280.176484 208.727008 
L 280.217071 208.060071 
L 280.62294 194.914017 
L 280.7447 195.51673 
L 280.825874 194.029709 
L 280.907048 194.22732 
L 281.028809 191.27798 
L 281.231743 187.108393 
L 281.353504 184.159053 
L 281.394091 184.628379 
L 281.434678 184.64814 
L 281.475264 185.127346 
L 281.515851 184.66296 
L 281.556438 184.089889 
L 281.597025 184.252918 
L 282.530524 197.532359 
L 282.611697 197.34957 
L 282.652284 197.369331 
L 282.733458 198.105431 
L 282.774045 197.675627 
L 282.814632 197.54718 
L 282.895806 196.687574 
L 282.936393 196.998811 
L 282.976979 197.137138 
L 283.179914 195.546372 
L 283.220501 196.084861 
L 283.261088 196.005817 
L 283.301675 195.462387 
L 283.382848 195.659998 
L 283.504609 197.063034 
L 283.545196 196.791319 
L 283.585783 196.825901 
L 283.666957 191.011205 
L 283.788717 184.070128 
L 283.829304 185.048301 
L 283.910478 183.245103 
L 283.991652 178.76922 
L 284.032239 180.142615 
L 284.153999 183.837936 
L 284.194586 183.254984 
L 284.235173 183.151238 
L 284.397521 189.553826 
L 284.438107 188.802905 
L 284.478694 188.081626 
L 284.519281 189.138844 
L 284.762803 202.309599 
L 284.884563 207.832819 
L 285.006324 206.400141 
L 285.046911 206.810183 
L 285.087498 208.845574 
L 285.168672 208.321906 
L 285.249845 205.08603 
L 285.331019 206.251933 
L 285.371606 206.38532 
L 285.45278 201.924258 
L 285.777475 194.000068 
L 285.858649 195.758803 
L 285.939822 194.879435 
L 285.980409 194.59784 
L 286.020996 194.770749 
L 286.061583 194.904137 
L 286.10217 194.834973 
L 286.183344 192.448823 
L 286.508039 184.756826 
L 286.548626 184.722244 
L 286.589213 185.107585 
L 286.75156 183.319207 
L 286.913908 185.596671 
L 286.954495 185.315076 
L 287.27919 193.945725 
L 287.603885 198.841531 
L 287.644472 198.130132 
L 287.766233 198.298101 
L 287.847406 198.036267 
L 288.009754 196.119443 
L 288.050341 196.326934 
L 288.212688 194.301424 
L 288.253275 194.770749 
L 288.293862 193.85186 
L 288.334449 194.622541 
L 288.375036 194.716407 
L 288.415623 194.691705 
L 288.740318 197.645986 
L 288.780905 197.804074 
L 288.862079 190.601163 
L 288.943252 180.621821 
L 289.024426 181.313459 
L 289.186774 171.245192 
L 289.227361 173.290463 
L 289.592643 192.616793 
L 289.836164 203.890485 
L 289.876751 203.4261 
L 289.998512 212.896594 
L 290.120272 210.722876 
L 290.242033 208.568919 
L 290.28262 210.836502 
L 290.323207 208.099593 
L 290.485554 203.870724 
L 290.891423 192.513047 
L 290.972597 193.624607 
L 291.013184 193.219505 
L 291.053771 192.39448 
L 291.094358 193.466519 
L 291.134945 193.362773 
L 291.297292 195.986056 
L 291.5814 186.209264 
L 291.621987 186.100579 
L 291.784335 182.375616 
L 291.824922 181.89147 
L 291.865509 182.509003 
L 291.906096 182.642391 
L 292.433725 193.787636 
L 292.596073 198.45619 
L 292.63666 198.391966 
L 292.799007 200.027195 
L 293.001942 197.606464 
L 293.407811 193.076237 
L 293.93544 199.429423 
L 293.976027 199.286155 
L 294.016614 199.226872 
L 294.057201 199.296035 
L 294.138375 194.499035 
L 294.300722 181.916171 
L 294.381896 176.635024 
L 294.503657 169.535859 
L 294.58483 178.235671 
L 294.666004 176.486816 
L 294.747178 180.928118 
L 294.950112 194.726287 
L 295.315394 213.331338 
L 295.437155 211.740571 
L 295.477742 212.6397 
L 295.518329 211.982644 
L 295.558916 211.291007 
L 295.76185 204.280766 
L 295.802437 203.885545 
L 295.964785 196.964229 
L 296.005372 196.756737 
L 296.167719 193.150341 
L 296.208306 193.812337 
L 296.248893 193.224446 
L 296.330067 191.668261 
L 296.451827 196.504784 
L 296.492414 196.376337 
L 296.533001 195.096807 
L 296.573588 196.588768 
L 296.614175 195.69458 
L 296.654762 196.697454 
L 296.695349 196.134264 
L 297.060631 182.064379 
L 297.141805 182.094021 
L 297.344739 183.847816 
L 297.710021 192.493286 
L 297.872369 198.554995 
L 297.912955 197.838656 
L 298.075303 200.67931 
L 298.684106 191.114951 
L 298.805867 192.374719 
L 298.846454 191.900454 
L 299.049388 195.981115 
L 299.089975 195.630356 
L 299.211736 198.683442 
L 299.252323 198.312922 
L 299.29291 197.339689 
L 299.333497 198.209176 
L 299.41467 199.795002 
L 299.455257 199.330617 
L 299.820539 170.929015 
L 299.901713 172.213484 
L 299.9423 177.410647 
L 300.023474 176.486816 
L 300.104648 179.880781 
L 300.388756 201.459873 
L 300.429343 201.499395 
L 300.510517 205.980218 
L 300.672864 213.958752 
L 300.754038 212.343284 
L 300.835212 214.704732 
L 300.875799 213.385681 
L 300.997559 206.039502 
L 301.038146 206.266754 
L 301.281667 197.571882 
L 301.322254 197.823835 
L 301.444015 192.681016 
L 301.484602 193.441817 
L 301.525189 193.970426 
L 301.565776 193.67401 
L 301.606363 190.951922 
L 301.687536 191.816469 
L 301.76871 194.701586 
L 301.849884 194.538557 
L 301.931058 195.220314 
L 301.971645 197.240884 
L 302.012232 196.98893 
L 302.377514 183.620564 
L 302.4181 183.73419 
L 302.539861 181.980395 
L 302.580448 182.479362 
L 303.108078 195.027643 
L 303.351599 200.585445 
L 303.392186 201.252382 
L 303.554533 199.325677 
L 303.59512 199.103365 
L 303.919815 191.747305 
L 304.041576 190.413433 
L 304.082163 190.433194 
L 304.12275 189.524185 
L 304.163337 190.265225 
L 304.203924 190.393672 
L 304.528619 197.922641 
L 304.569206 197.433554 
L 304.731553 199.646794 
L 304.812727 199.216991 
L 304.853314 198.485831 
L 305.137422 173.79437 
L 305.178009 173.888235 
L 305.218596 172.425916 
L 305.340357 178.171448 
L 305.380944 176.244743 
L 305.42153 178.082523 
L 306.030334 213.489426 
L 306.070921 213.222652 
L 306.111508 212.950937 
L 306.152094 213.38074 
L 306.192681 214.694852 
L 306.314442 206.365559 
L 306.395616 206.775602 
L 306.59855 197.063034 
L 306.639137 197.54224 
L 306.801485 191.752246 
L 306.842072 192.56245 
L 306.882659 193.066357 
L 306.963832 189.43526 
L 307.004419 190.946982 
L 307.12618 193.822218 
L 307.166767 193.619667 
L 307.207354 193.921023 
L 307.329114 197.305107 
L 307.369701 197.235943 
L 307.734983 183.847816 
L 307.77557 184.490051 
L 307.937918 182.44478 
L 308.100265 185.033481 
L 308.343787 189.61805 
L 308.587308 198.362325 
L 308.749656 200.773176 
L 308.912003 198.742725 
L 309.074351 195.798325 
L 309.277285 191.490411 
L 309.439633 189.529125 
L 309.561393 190.107136 
L 309.683154 192.503166 
L 309.926675 198.248698 
L 310.048436 199.617153 
L 310.089023 199.133006 
L 310.170197 199.449184 
L 310.210784 199.795002 
L 310.373131 191.129772 
L 310.413718 182.849882 
L 310.494892 183.72431 
L 310.535479 184.208456 
L 310.657239 172.979226 
L 310.779 178.497506 
L 310.819587 178.112165 
L 310.860174 178.660534 
L 310.941348 182.958568 
L 311.144282 197.151959 
L 311.30663 205.426908 
L 311.550151 213.519068 
L 311.753085 206.395201 
L 311.915433 201.395649 
L 312.118368 194.736168 
L 312.280715 192.888507 
L 312.361889 193.506041 
L 312.402476 192.853925 
L 312.48365 193.239266 
L 312.524236 194.04453 
L 312.60541 193.965486 
L 312.645997 194.108754 
L 312.767758 196.139204 
L 312.808345 195.289478 
L 313.214214 184.10471 
L 313.2548 184.460409 
L 313.295387 184.000965 
L 313.335974 183.388371 
L 313.376561 184.149173 
L 313.417148 184.415947 
L 313.457735 183.941681 
L 314.188299 199.577631 
L 314.228886 199.972852 
L 314.837689 189.934227 
L 314.918863 189.642751 
L 315.000037 190.625864 
L 315.040624 190.675267 
L 315.202971 194.479274 
L 315.48708 198.885993 
L 315.527666 197.957223 
L 315.568253 199.38496 
L 315.60884 198.110371 
L 315.649427 199.849345 
L 315.690014 198.762486 
L 315.811775 195.679759 
L 315.933535 183.269805 
L 315.974122 187.23684 
L 316.095883 172.455557 
L 316.217644 179.984526 
L 316.25823 177.489691 
L 316.298817 180.96764 
L 316.339404 179.258307 
L 316.542339 194.78557 
L 316.582926 193.328191 
L 316.623512 202.294778 
L 316.704686 201.978601 
L 316.745273 201.178278 
L 316.867034 209.86821 
L 316.907621 208.21816 
L 316.988795 212.041928 
L 317.069968 211.1675 
L 317.110555 211.236664 
L 317.475837 197.5373 
L 317.516424 197.804074 
L 317.557011 197.077855 
L 317.597598 194.247081 
L 317.678772 194.928838 
L 317.841119 193.051536 
L 317.881706 192.809463 
L 317.922293 191.608978 
L 317.96288 193.224446 
L 318.003467 194.311305 
L 318.044054 193.362773 
L 318.084641 192.661255 
L 318.125227 193.338072 
L 318.206401 196.010757 
L 318.246988 195.951474 
L 318.449923 190.087375 
L 318.734031 183.951562 
L 318.815205 183.660086 
L 318.896378 185.483045 
L 318.936965 183.684787 
L 318.977552 186.046236 
L 319.058726 186.777395 
L 319.221074 190.749371 
L 319.26166 189.687213 
L 319.464595 196.277531 
L 319.667529 199.355319 
L 320.032811 194.503975 
L 320.276333 190.512238 
L 320.357507 190.443074 
L 320.398093 190.052793 
L 320.560441 192.685956 
L 320.803962 197.082795 
L 320.96631 198.475951 
L 321.006897 197.403913 
L 321.047484 198.910694 
L 321.128657 198.979858 
L 321.331592 193.372654 
L 321.453353 182.098961 
L 321.493939 182.597928 
L 321.534526 183.966383 
L 321.575113 173.651102 
L 321.656287 174.742902 
L 321.696874 175.81988 
L 321.737461 180.873775 
L 321.818635 179.539902 
L 321.899808 184.504872 
L 321.940395 184.252918 
L 322.062156 194.988121 
L 322.102743 195.383343 
L 322.427438 210.742637 
L 322.468025 210.816741 
L 322.508612 210.515385 
L 322.549199 211.132918 
L 323.076828 196.662872 
L 323.117415 196.687574 
L 323.198589 194.340946 
L 323.279763 194.424931 
L 323.32035 193.002133 
L 323.360936 194.336006 
L 323.401523 192.730419 
L 323.44211 191.994319 
L 323.482697 193.021895 
L 323.645045 193.886441 
L 323.685632 193.590025 
L 323.766805 193.357833 
L 323.807392 196.638171 
L 323.96974 190.047853 
L 324.294435 183.991084 
L 324.335022 184.529573 
L 324.375609 184.178814 
L 324.416196 184.411007 
L 324.456783 184.514752 
L 325.106173 198.732845 
L 325.14676 198.337623 
L 325.187347 199.38002 
L 325.227933 198.861292 
L 325.593216 193.259027 
L 325.633802 193.268908 
L 325.79615 191.198935 
L 325.836737 191.47065 
L 325.877324 190.838296 
L 325.999084 192.38954 
L 326.039671 192.399421 
L 326.202019 196.292352 
L 326.242606 195.872429 
L 326.283193 196.485023 
L 326.44554 198.525353 
L 326.486127 198.10049 
L 326.526714 197.275466 
L 326.567301 198.609338 
L 326.607888 198.777307 
L 326.810822 193.179983 
L 326.851409 195.482148 
L 327.013757 180.216719 
L 327.054344 184.974197 
L 327.176104 172.707511 
L 327.297865 181.698799 
L 327.338452 179.50532 
L 327.460213 185.458344 
L 327.663147 200.002494 
L 327.784908 205.911055 
L 327.825495 204.009051 
L 327.987842 212.501373 
L 328.15019 208.731948 
L 328.190777 209.398884 
L 328.231363 209.127169 
L 328.393711 201.079472 
L 328.434298 202.15151 
L 328.637232 195.106688 
L 328.677819 195.492029 
L 328.758993 191.781887 
L 328.840167 192.142527 
L 328.880754 193.960545 
L 328.961928 192.661255 
L 329.002514 191.515113 
L 329.043101 192.39448 
L 329.246036 195.808206 
L 329.32721 196.559127 
L 329.367796 193.822218 
L 329.408383 194.059351 
L 329.692492 185.280494 
L 329.733078 185.404001 
L 329.854839 183.536579 
L 329.936013 183.595863 
L 330.138947 187.562898 
L 330.382469 193.357833 
L 330.62599 198.841531 
L 330.666577 198.604398 
L 330.707164 199.123126 
L 330.747751 199.01938 
L 331.031859 194.370588 
L 331.194207 192.547629 
L 331.356554 190.793833 
L 331.437728 191.890573 
L 331.478315 190.527059 
L 331.518902 192.883567 
L 331.559489 192.152407 
L 331.762423 196.25777 
L 331.965357 198.614278 
L 332.005944 197.35451 
L 332.087118 197.942402 
L 332.168292 196.193547 
L 332.249466 196.830841 
L 332.290053 196.939527 
L 332.411813 191.999259 
L 332.4524 192.616793 
L 332.574161 178.359178 
L 332.614748 184.974197 
L 332.655335 177.568735 
L 332.695922 180.404449 
L 332.736508 172.070217 
L 332.817682 172.124559 
L 332.98003 186.387114 
L 333.020617 184.64814 
L 333.223551 202.769044 
L 333.264138 202.240435 
L 333.304725 206.7509 
L 333.385899 204.809375 
L 333.588833 212.284001 
L 333.62942 211.72575 
L 333.751181 205.990099 
L 333.791768 207.29927 
L 333.832354 206.577991 
L 334.035289 196.460321 
L 334.075876 197.562001 
L 334.27881 192.483405 
L 334.319397 192.725478 
L 334.359984 191.599097 
L 334.400571 192.745239 
L 334.481745 194.084052 
L 334.522332 193.67895 
L 334.562919 191.198935 
L 334.644092 192.57233 
L 334.765853 194.746048 
L 334.80644 194.667004 
L 335.009374 192.661255 
L 335.049961 193.12564 
L 335.212309 186.510621 
L 335.374656 184.539454 
L 335.415243 184.524633 
L 335.45583 183.902159 
L 335.577591 187.389989 
L 335.618178 186.723052 
L 336.064634 196.564067 
L 336.10522 196.914826 
L 336.145807 198.579696 
L 336.226981 198.46113 
L 336.267568 198.762486 
L 336.714024 192.374719 
L 336.916958 190.146658 
L 337.079306 192.508107 
L 337.119893 192.463644 
L 337.16048 192.725478 
L 337.28224 195.768684 
L 337.322827 194.459513 
L 337.363414 196.593709 
L 337.404001 195.842788 
L 337.485175 197.636105 
L 337.525762 197.497778 
L 337.647522 196.282472 
L 337.688109 196.865423 
L 337.728696 198.495712 
L 337.769283 196.410919 
L 337.80987 197.087735 
L 337.850457 194.790511 
L 337.931631 194.825092 
L 337.972217 195.032584 
L 338.012804 194.059351 
L 338.175152 178.803802 
L 338.215739 186.915723 
L 338.256326 178.062762 
L 338.296913 180.300704 
L 338.378086 173.838833 
L 338.418673 178.230731 
L 338.865129 205.762847 
L 338.905716 204.34499 
L 338.946303 205.960457 
L 338.98689 205.209536 
L 339.027477 205.545475 
L 339.189824 212.239538 
L 339.352172 204.443795 
L 339.392759 206.538469 
L 339.433346 206.582931 
L 339.63628 195.981115 
L 339.676867 197.487897 
L 339.717454 197.557061 
L 339.879801 192.345078 
L 339.960975 192.419182 
L 340.042149 193.471459 
L 340.123323 192.76006 
L 340.204496 192.93297 
L 340.245083 192.177109 
L 340.448018 195.739042 
L 340.650952 190.452955 
L 340.691539 191.485471 
L 340.8133 185.809103 
L 340.853887 185.858505 
L 340.894474 185.310136 
L 340.935061 185.843685 
L 340.975647 186.841619 
L 341.016234 185.305195 
L 341.056821 186.821858 
L 341.097408 186.075877 
L 341.137995 187.138035 
L 341.178582 187.187438 
L 341.46269 192.715598 
L 341.503277 192.725478 
L 341.543864 193.100939 
L 341.706211 196.8012 
L 341.787385 195.669878 
L 341.909146 197.478017 
L 341.949733 197.17666 
L 342.11208 193.753054 
L 342.152667 194.583019 
L 342.193254 193.713532 
L 342.436776 191.396546 
L 342.558536 191.297741 
L 342.883231 194.9733 
L 342.923818 194.95848 
L 343.126753 196.544306 
L 343.451448 195.259836 
L 343.492035 196.000876 
L 343.532622 195.116568 
L 343.573208 195.788445 
L 343.654382 194.642303 
L 343.81673 184.697542 
L 343.857317 187.814852 
L 343.93849 186.891022 
L 344.019664 181.091146 
L 344.060251 181.609875 
L 344.100838 182.207647 
L 344.222599 191.999259 
L 344.263186 189.62793 
L 344.384946 194.256962 
L 344.506707 201.840273 
L 344.547294 199.864166 
L 344.628468 199.790062 
L 344.709641 203.786739 
L 344.750228 203.381637 
L 344.871989 205.476311 
L 344.99375 202.116929 
L 345.034337 203.297653 
L 345.156097 200.447118 
L 345.196684 200.605206 
L 345.521379 195.684699 
L 345.561966 196.119443 
L 345.724314 192.809463 
L 345.764901 194.321185 
L 345.805488 192.112885 
L 345.846074 194.118634 
L 345.967835 191.337263 
L 346.008422 192.448823 
L 346.089596 192.043721 
L 346.130183 193.30843 
L 346.17077 192.448823 
L 346.333117 189.573587 
L 346.373704 189.652632 
L 346.414291 189.608169 
L 346.536052 187.478913 
L 346.495465 189.62299 
L 346.576638 188.066805 
L 346.617225 187.562898 
L 346.657812 188.175491 
L 346.698399 188.244655 
L 346.860747 189.835421 
L 346.901334 189.104262 
L 347.023094 190.927221 
L 347.063681 190.853117 
L 347.307202 193.515921 
L 347.347789 193.091058 
L 347.510137 195.220314 
L 347.591311 195.126449 
L 347.672485 195.664938 
L 347.753658 195.546372 
L 347.916006 193.945725 
L 347.956593 194.489154 
L 348.037767 194.321185 
L 348.11894 193.471459 
L 348.159527 192.740299 
L 348.200114 186.653889 
L 348.281288 190.250404 
L 348.362462 196.267651 
L 348.403049 196.198487 
L 348.443635 192.468584 
L 348.524809 194.098873 
L 348.605983 200.540983 
L 348.64657 198.757546 
L 348.687157 194.943659 
L 348.727744 195.062225 
L 348.808917 199.320737 
L 348.849504 198.866232 
L 348.930678 193.654249 
L 348.971265 194.993062 
L 349.052439 197.319928 
L 349.093026 196.203427 
L 349.1742 193.30349 
L 349.214786 193.762935 
L 349.29596 196.633231 
L 349.336547 195.921832 
L 349.580068 187.207199 
L 349.620655 184.84081 
L 349.701829 185.93755 
L 349.742416 185.641134 
L 349.864177 181.486368 
L 349.904764 182.489242 
L 350.270046 194.306364 
L 350.310632 194.296484 
L 350.513567 202.023063 
L 350.554154 201.869915 
L 350.716501 204.498138 
L 350.757088 203.332235 
L 350.797675 204.883479 
L 350.838262 204.814315 
L 350.878849 206.642214 
L 350.919436 204.033753 
L 351.852934 190.107136 
L 351.934108 190.428254 
L 352.015282 189.904585 
L 352.055869 190.383791 
L 352.177629 189.341395 
L 352.29939 188.758443 
L 352.380564 187.997642 
L 352.461738 189.568647 
L 352.542912 189.173425 
L 352.583498 188.733742 
L 352.624085 189.282111 
L 352.664672 188.946173 
L 352.786433 190.675267 
L 352.82702 190.606103 
L 353.232889 194.064291 
L 353.273476 193.990187 
L 353.435823 195.368522 
L 353.47641 195.353701 
L 353.557584 195.501909 
L 353.598171 194.760869 
L 353.638758 195.14127 
L 353.679344 194.894256 
L 353.760518 194.03465 
L 353.841692 194.459513 
L 353.882279 194.474333 
L 354.044626 193.441817 
L 354.085213 193.832099 
L 354.166387 193.604846 
L 354.206974 193.426997 
L 354.247561 193.664129 
L 354.328735 194.271782 
L 354.369322 194.148276 
L 354.409909 193.886441 
L 354.450495 193.925964 
L 354.65343 194.943659 
L 354.694017 194.805331 
L 354.815777 196.376337 
L 354.856364 195.669878 
L 354.896951 196.81108 
L 354.937538 196.954348 
L 354.978125 197.576822 
L 355.018712 196.470202 
L 355.059299 197.779373 
L 355.099886 196.667813 
L 355.140473 197.601523 
L 355.181059 196.218248 
L 355.383994 189.529125 
L 355.424581 189.44514 
L 355.546341 184.751885 
L 355.83045 188.190312 
L 356.033384 194.484214 
L 356.47984 203.356936 
L 356.520427 202.526971 
L 356.561014 204.369691 
L 356.601601 202.497329 
L 356.642188 202.70482 
L 356.682774 201.380829 
L 356.763948 201.692065 
L 356.804535 201.613021 
L 356.966883 198.594517 
L 357.00747 198.342563 
L 357.250991 193.293609 
L 357.332165 191.979498 
L 357.413338 192.503166 
L 357.535099 189.786019 
L 357.65686 191.762126 
L 357.819207 189.588408 
L 357.859794 189.884824 
L 357.900381 189.524185 
L 357.940968 189.07462 
L 357.981555 190.003391 
L 358.022142 188.901711 
L 358.062729 189.751437 
L 358.103316 188.215013 
L 358.184489 188.901711 
L 358.346837 190.739491 
L 358.387424 189.81566 
L 358.428011 190.655506 
L 358.509185 191.485471 
L 358.671532 191.959737 
L 358.712119 192.107945 
L 358.915053 194.291543 
L 358.95564 194.192738 
L 359.117988 195.600715 
L 359.199162 195.259836 
L 359.239749 195.368522 
L 359.442683 194.691705 
L 359.48327 194.647243 
L 359.523857 194.874495 
L 359.726791 193.708592 
L 359.767378 193.940784 
L 359.807965 193.911143 
L 359.848552 193.150341 
L 359.889139 193.995127 
L 359.929726 194.03465 
L 360.051486 193.481339 
L 360.092073 193.846919 
L 360.173247 193.812337 
L 360.254421 194.657123 
L 360.295008 194.019829 
L 360.335595 194.721347 
L 360.376182 194.350827 
L 360.457355 194.830033 
L 360.538529 194.375528 
L 360.741464 195.986056 
L 360.78205 195.640237 
L 360.863224 195.541431 
L 360.903811 197.453315 
L 361.106746 189.524185 
L 361.147333 190.008331 
L 361.350267 185.725118 
L 361.390854 185.902968 
L 361.431441 185.038421 
L 361.472028 186.461218 
L 361.756136 193.570264 
L 362.121418 201.642663 
L 362.162005 201.59326 
L 362.324352 203.697814 
L 362.446113 201.795811 
L 362.4867 202.176212 
L 362.567874 201.899557 
L 362.811395 197.428614 
L 362.973743 194.95848 
L 363.095503 192.463644 
L 363.13609 192.740299 
L 363.176677 192.532808 
L 363.298438 190.699968 
L 363.339025 190.73455 
L 363.420198 191.450889 
L 363.460785 190.818535 
L 363.66372 188.926412 
L 363.704307 189.637811 
L 363.744894 190.275105 
L 363.866654 188.743622 
L 363.907241 188.783144 
L 364.110176 190.788893 
L 364.150762 189.99351 
L 364.231936 190.492477 
L 364.31311 191.796708 
L 364.353697 191.786827 
L 364.394284 191.589217 
L 364.678392 193.619667 
L 364.718979 193.214565 
L 364.759566 193.446758 
L 364.881327 194.894256 
L 364.921913 194.60278 
L 364.9625 195.165971 
L 365.003087 194.360707 
L 365.043674 195.081986 
L 365.206022 194.839913 
L 365.246609 194.306364 
L 365.287195 194.548437 
L 365.327782 195.185732 
L 365.368369 193.970426 
L 365.449543 194.60278 
L 365.611891 193.49122 
L 365.733651 194.533617 
L 365.774238 194.355767 
L 365.855412 193.407235 
L 365.895999 193.441817 
L 365.977173 194.805331 
L 366.017759 194.316245 
L 366.058346 194.291543 
L 366.098933 193.807397 
L 366.220694 196.099682 
L 366.261281 194.207559 
L 366.342455 195.432745 
L 366.383042 195.131389 
L 366.423628 195.175851 
L 366.464215 196.193547 
L 366.504802 194.237201 
L 366.545389 196.583828 
L 366.585976 196.262711 
L 366.626563 196.356576 
L 366.66715 196.776498 
L 367.235366 185.102644 
L 367.275953 185.354598 
L 367.397714 188.649757 
L 367.438301 188.605295 
L 367.925343 201.03501 
L 368.047104 202.31948 
L 368.168865 203.085221 
L 368.209452 203.055579 
L 368.371799 201.193098 
L 368.412386 201.509276 
L 368.452973 201.341306 
L 368.655907 196.944468 
L 368.696494 197.566941 
L 368.940016 191.688022 
L 368.980603 192.473525 
L 369.102363 190.240523 
L 369.14295 190.314627 
L 369.224124 189.731676 
L 369.305298 189.677333 
L 369.345885 191.193995 
L 369.386471 188.51143 
L 369.467645 188.857248 
L 369.508232 189.889764 
L 369.548819 188.694219 
L 369.589406 189.751437 
L 369.67058 189.642751 
L 369.711167 190.438134 
L 369.751754 188.659638 
L 369.79234 189.706974 
L 369.914101 191.179174 
L 369.995275 190.951922 
L 370.035862 190.393672 
L 370.157622 192.270974 
L 370.198209 190.996384 
L 370.279383 191.757186 
L 370.360557 192.246272 
L 370.401144 191.608978 
L 370.441731 192.359899 
L 370.766426 195.69952 
L 370.8476 195.472268 
L 370.888186 194.894256 
L 370.928773 195.541431 
L 370.96936 194.96342 
L 371.050534 195.69458 
L 371.091121 195.33394 
L 371.131708 194.444692 
L 371.212882 194.914017 
L 371.253469 194.750988 
L 371.375229 193.728353 
L 371.456403 194.686765 
L 371.618751 193.086118 
L 371.781098 194.242141 
L 371.821685 194.306364 
L 371.862272 194.261902 
L 371.902859 193.86668 
L 371.943446 194.385409 
L 372.065206 195.803266 
L 372.14638 194.22732 
L 372.186967 194.667004 
L 372.308728 196.020637 
L 372.349315 194.686765 
L 372.389901 196.040398 
L 372.430488 195.605655 
L 372.471075 195.042464 
L 372.511662 197.700329 
L 372.552249 194.938719 
L 372.592836 196.089801 
L 372.633423 196.223188 
L 372.755183 190.783953 
L 372.79577 188.610235 
L 372.876944 189.904585 
L 372.917531 190.097256 
L 373.039292 183.630444 
L 373.079879 184.346783 
L 373.161052 186.614366 
L 373.282813 189.163545 
L 373.3234 187.286243 
L 373.363987 189.25247 
L 373.404574 189.415499 
L 373.566921 197.255704 
L 373.607508 196.282472 
L 373.648095 197.389092 
L 373.688682 196.969169 
L 373.85103 202.813506 
L 373.891616 201.22274 
L 373.932203 203.164265 
L 374.013377 203.4261 
L 374.053964 203.401398 
L 374.175725 202.062586 
L 374.216312 202.714701 
L 374.338072 199.503527 
L 374.378659 199.513407 
L 374.946876 189.084501 
L 375.028049 190.334389 
L 375.068636 191.050727 
L 375.109223 190.235583 
L 375.190397 190.102196 
L 375.230984 190.611044 
L 375.271571 189.741556 
L 375.312158 190.571521 
L 375.352745 190.492477 
L 375.393331 190.808654 
L 375.433918 190.329448 
L 375.555679 189.62793 
L 375.636853 189.736616 
L 375.758613 190.680207 
L 375.839787 189.287052 
L 375.961548 191.608978 
L 376.002135 191.357024 
L 376.083309 191.860931 
L 376.123895 191.006265 
L 376.164482 192.01902 
L 376.205069 191.821409 
L 376.32683 194.41011 
L 376.367417 192.37966 
L 376.408004 194.261902 
L 376.448591 194.098873 
L 376.610938 196.297292 
L 376.651525 195.911951 
L 376.732699 194.899196 
L 376.85446 195.200553 
L 376.895046 196.005817 
L 376.935633 195.111628 
L 377.057394 193.175043 
L 377.097981 194.825092 
L 377.179155 194.345886 
L 377.300915 192.967552 
L 377.382089 192.824284 
L 377.422676 194.617601 
L 377.463263 193.175043 
L 377.50385 194.148276 
L 377.544437 194.716407 
L 377.62561 194.77569 
L 377.706784 193.30843 
L 377.787958 195.432745 
L 377.828545 193.273848 
L 377.869132 196.242949 
L 377.909719 193.881501 
L 377.950306 195.758803 
L 378.031479 194.731227 
L 378.112653 196.415859 
L 378.15324 194.849794 
L 378.234414 195.911951 
L 378.275001 195.818086 
L 378.315588 195.907011 
L 378.356175 197.087735 
L 378.396761 196.262711 
L 378.437348 194.716407 
L 378.518522 195.002942 
L 378.599696 194.079112 
L 378.721457 188.649757 
L 378.762043 189.494543 
L 378.80263 190.196061 
L 378.924391 184.366544 
L 378.964978 184.554275 
L 379.005565 186.535322 
L 379.086739 186.253727 
L 379.127325 185.967191 
L 379.249086 189.133903 
L 379.492607 197.700329 
L 379.533194 197.641045 
L 379.614368 198.895874 
L 379.736129 203.228489 
L 379.776716 202.788805 
L 379.817303 203.193907 
L 380.020237 204.843957 
L 380.141998 202.186092 
L 380.182585 202.813506 
L 380.547867 192.695837 
L 380.588454 194.256962 
L 380.710214 189.469842 
L 380.750801 190.596223 
L 380.913149 188.397803 
L 380.994322 188.827607 
L 381.075496 187.587599 
L 381.116083 188.249595 
L 381.278431 190.205942 
L 381.359604 189.277171 
L 381.521952 191.416307 
L 381.562539 191.233517 
L 381.603126 191.040847 
L 381.724887 192.216631 
L 381.765473 192.058542 
L 381.887234 192.952731 
L 381.927821 192.438943 
L 381.968408 192.503166 
L 382.130755 193.945725 
L 382.171342 193.86668 
L 382.211929 193.481339 
L 382.252516 194.133455 
L 382.293103 193.757994 
L 382.414864 195.096807 
L 382.536624 194.800391 
L 382.577211 194.148276 
L 382.617798 194.637362 
L 382.698972 195.037524 
L 382.861319 193.13058 
L 382.901906 193.338072 
L 382.942493 194.291543 
L 382.98308 194.074172 
L 383.023667 193.135521 
L 383.104841 193.659189 
L 383.145428 192.928029 
L 383.186015 194.741108 
L 383.267188 193.85186 
L 383.307775 193.901262 
L 383.348362 194.844854 
L 383.388949 194.58796 
L 383.470123 194.938719 
L 383.51071 193.753054 
L 383.551297 194.444692 
L 383.591884 192.952731 
L 383.63247 194.617601 
L 383.673057 194.765809 
L 383.713644 195.457447 
L 383.754231 193.170103 
L 383.835405 193.753054 
L 383.997752 196.218248 
L 384.119513 193.86174 
L 384.200687 196.045339 
L 384.241274 195.225254 
L 384.322448 194.340946 
L 384.363034 186.989827 
L 384.444208 188.047044 
L 384.484795 191.371845 
L 384.525382 188.70904 
L 384.606556 183.146298 
L 384.68773 184.341843 
L 384.728316 184.485111 
L 384.850077 187.22696 
L 384.890664 184.331963 
L 384.931251 188.397803 
L 385.174772 198.895874 
L 385.215359 198.194355 
L 385.255946 197.482957 
L 385.377707 204.952643 
L 385.418294 204.779733 
L 385.458881 206.345798 
L 385.540054 206.340858 
L 385.580641 205.412087 
L 385.661815 208.312025 
L 385.702402 206.340858 
L 385.742989 206.123486 
L 385.783576 206.657035 
L 385.905336 201.785931 
L 385.945923 203.114863 
L 386.51414 186.811977 
L 386.595314 186.67859 
L 386.6359 187.819792 
L 386.717074 185.438583 
L 386.757661 185.94743 
L 386.798248 185.58185 
L 386.838835 188.723861 
L 386.920009 188.427445 
L 386.960596 187.217079 
L 387.001182 188.748562 
L 387.041769 188.33358 
L 387.204117 192.043721 
L 387.244704 190.403552 
L 387.325878 190.942042 
L 387.488225 193.545563 
L 387.569399 193.150341 
L 387.609986 192.56739 
L 387.650573 192.997193 
L 387.69116 194.252021 
L 387.731746 194.064291 
L 387.772333 193.031775 
L 387.81292 194.849794 
L 387.894094 194.029709 
L 387.934681 193.229386 
L 387.975268 193.367713 
L 388.097028 195.89219 
L 388.137615 194.22238 
L 388.178202 193.412176 
L 388.218789 193.940784 
L 388.299963 194.316245 
L 388.34055 195.15115 
L 388.381137 194.503975 
L 388.462311 193.407235 
L 388.543484 193.515921 
L 388.624658 194.499035 
L 388.665245 194.133455 
L 388.705832 194.306364 
L 388.746419 192.997193 
L 388.787006 194.41999 
L 388.827593 195.086927 
L 388.908766 190.798774 
L 388.949353 193.288669 
L 388.98994 196.203427 
L 389.030527 195.017763 
L 389.071114 191.421248 
L 389.152288 192.794642 
L 389.274048 195.541431 
L 389.355222 190.033032 
L 389.395809 192.38954 
L 389.436396 197.794194 
L 389.476983 197.270525 
L 389.558157 190.428254 
L 389.63933 201.499395 
L 389.679917 198.732845 
L 389.720504 189.62793 
L 389.761091 193.48628 
L 389.801678 201.998362 
L 389.882852 196.509724 
L 390.045199 188.269356 
L 390.085786 191.475591 
L 390.126373 191.500292 
L 390.248134 186.530382 
L 390.288721 190.36897 
L 390.369894 180.735447 
L 390.410481 181.105967 
L 390.491655 190.492477 
L 390.532242 184.751885 
L 390.572829 181.945813 
L 390.613416 186.727993 
L 390.654003 191.218697 
L 390.735176 190.497417 
L 390.775763 190.586342 
L 390.897524 196.638171 
L 390.978698 200.876921 
L 391.019285 199.216991 
L 391.141045 206.859586 
L 391.181632 206.350738 
L 391.222219 205.194716 
L 391.262806 206.222291 
L 391.303393 209.50263 
L 391.34398 208.391069 
L 391.384567 206.20253 
L 391.425154 207.521582 
L 391.46574 208.119355 
L 391.587501 201.874855 
L 391.668675 202.937013 
L 392.236891 185.893087 
L 392.318065 187.2319 
L 392.358652 186.189503 
L 392.439826 183.620564 
L 392.480413 185.730058 
L 392.521 188.916532 
L 392.602173 187.296124 
L 392.64276 186.900902 
L 392.845695 190.843236 
L 393.048629 192.414241 
L 393.089216 192.354958 
L 393.17039 194.859674 
L 393.210977 194.622541 
L 393.292151 193.268908 
L 393.332738 193.580145 
L 393.373324 195.847728 
L 393.454498 194.326125 
L 393.495085 194.093933 
L 393.535672 194.899196 
L 393.576259 194.103813 
L 393.616846 193.456638 
L 393.657433 193.604846 
L 393.69802 195.294418 
L 393.738606 194.879435 
L 393.779193 193.446758 
L 393.860367 193.787636 
L 393.900954 193.13058 
L 393.941541 193.165162 
L 394.022715 194.60278 
L 394.063302 193.985247 
L 394.185062 192.374719 
L 394.225649 192.992253 
L 394.306823 194.479274 
L 394.34741 194.276723 
L 394.428584 192.028901 
L 394.509757 195.674819 
L 394.550344 191.663321 
L 394.631518 193.940784 
L 394.672105 194.701586 
L 394.753279 192.033841 
L 394.793866 194.014888 
L 394.834452 195.027643 
L 394.875039 192.858866 
L 394.956213 193.911143 
L 394.9968 193.688831 
L 395.159148 195.907011 
L 395.199735 195.442626 
L 395.240321 192.928029 
L 395.280908 196.964229 
L 395.321495 196.040398 
L 395.362082 196.529485 
L 395.402669 196.746857 
L 395.52443 194.247081 
L 395.565017 198.757546 
L 395.64619 197.458255 
L 395.767951 188.244655 
L 395.849125 192.928029 
L 395.930299 183.17594 
L 396.011472 185.986952 
L 396.133233 181.244295 
L 396.17382 187.009588 
L 396.254994 186.881141 
L 396.295581 185.053242 
L 396.336167 185.685596 
L 397.026145 211.488618 
L 398.162578 182.429959 
L 398.243751 185.986952 
L 398.324925 185.893087 
L 398.365512 184.10471 
L 398.446686 185.275554 
L 398.487273 187.948239 
L 398.487273 187.948239 
" style="fill:none;stroke:#ff0000;stroke-linecap:square;stroke-width:1.5;"/>
   </g>
   <g id="text_1">
    <!--   -->
    <defs>
     <path id="DejaVuSans-20"/>
    </defs>
    <g transform="translate(234.253125 35.472)scale(0.12 -0.12)">
     <use xlink:href="#DejaVuSans-20"/>
    </g>
   </g>
  </g>
 </g>
 <defs>
  <clipPath id="p69c6a93c42">
   <rect height="266.112" width="357.12" x="57.6" y="41.472"/>
  </clipPath>
 </defs>
</svg>
